276.75	276.29	276.37	276.39	276.39	276.68	276.71	276.66	277.26	277.28	275.83	275.28	275.47	275.42	275.42	276.62	276.49	276.49	276.53	276.57	277.09	277.11	277.09	276.94	276.95	274.95	274.26	274.72	275.34	275.35	276.20	275.94	275.67	275.96	275.97	277.42	277.49	277.19	276.57	276.58	276.65	276.37	276.30	276.87	276.87	275.95	275.71	275.66	276.37	276.38	276.89	276.77	276.62	276.75	276.76
276.49	275.97	275.94	276.13	276.14	277.00	277.16	276.73	276.75	276.74	276.35	276.03	276.20	276.43	276.44	276.04	275.70	276.10	276.40	276.41	277.20	277.22	277.37	277.35	277.36	277.01	276.86	276.94	276.63	276.62	275.90	275.59	275.21	275.53	275.55	275.71	275.23	275.12	274.80	274.78	276.24	276.00	276.06	276.42	276.43	276.55	276.24	276.18	276.90	276.89	275.74	275.23	275.55	275.73	275.75
275.67	275.08	274.87	275.05	275.04	275.87	275.61	275.45	276.10	276.11	276.32	275.90	276.11	276.02	276.01	277.12	276.93	277.21	277.41	277.43	277.07	277.08	277.00	276.77	276.78	275.68	275.19	275.36	275.87	275.88	275.82	275.54	275.28	275.53	275.52	276.63	276.51	276.61	276.05	276.06	276.67	276.47	276.04	276.55	276.55	276.46	276.13	276.12	275.84	275.85	275.96	275.56	275.59	275.68	275.68
276.43	276.10	276.34	276.35	276.36	276.06	275.69	276.13	276.72	276.73	276.46	276.14	276.17	276.16	276.17	276.73	276.62	276.64	276.24	276.25	276.39	276.12	275.83	275.51	275.51	276.21	275.72	275.81	276.01	276.03	275.30	274.75	274.87	275.58	275.59	275.91	275.42	275.41	275.03	275.02	275.78	275.41	275.93	276.22	276.23	276.08	275.64	275.67	275.89	275.91	275.75	275.28	275.89	275.68	275.70
276.43	276.12	275.64	276.09	276.10	276.90	277.01	276.88	277.28	277.28	276.65	276.55	276.19	276.26	276.27	276.12	275.73	275.77	276.36	276.35	277.19	277.24	276.86	277.15	277.15	276.37	276.07	276.14	276.56	276.56	275.41	274.68	275.18	275.90	275.91	275.72	275.36	275.05	274.96	274.97	276.04	275.75	275.67	276.33	276.31	276.03	275.88	275.52	275.83	275.84	275.86	275.41	275.96	276.22	276.22
276.72	276.52	276.33	276.02	276.02	276.57	276.42	276.68	277.13	277.14	276.84	276.66	276.83	277.18	277.18	276.23	275.84	276.23	276.65	276.67	275.48	274.94	274.91	274.87	274.86	275.34	274.54	275.00	275.68	275.69	275.65	275.08	275.68	276.01	276.03	276.33	276.03	276.11	276.01	276.03	276.97	276.98	276.94	277.11	277.11	276.49	276.18	275.97	276.38	276.38	275.28	274.77	275.13	275.83	275.85
276.60	276.34	276.14	276.26	276.27	276.89	276.95	277.12	277.04	277.07	276.39	276.08	275.92	275.92	275.97	276.50	276.21	276.56	276.65	276.65	276.22	275.91	275.81	275.78	275.77	276.93	276.86	276.65	276.98	276.99	275.88	275.48	275.61	275.38	275.39	276.68	276.60	276.17	275.81	275.79	276.29	276.02	276.21	276.40	276.41	275.43	274.86	275.30	275.88	275.89	276.24	276.05	276.17	276.46	276.47
276.05	275.71	275.41	275.65	275.66	276.19	275.81	275.97	276.32	276.34	276.03	275.64	275.86	276.05	276.05	276.69	276.53	276.48	276.51	276.50	275.57	275.00	275.26	275.46	275.49	275.89	275.49	275.75	276.19	276.20	275.93	275.47	275.98	276.36	276.37	276.42	276.02	275.72	275.59	275.58	275.93	275.62	275.78	276.16	276.17	275.87	275.62	275.85	275.95	275.97	277.33	277.32	277.17	277.18	277.18
276.57	276.26	276.17	276.25	276.25	275.93	275.70	275.60	276.19	276.18	276.12	275.78	275.97	275.99	276.01	276.40	276.14	276.37	276.49	276.50	275.69	275.07	275.27	275.51	275.50	276.16	275.64	276.05	276.26	276.27	275.06	274.51	275.02	275.47	275.48	275.94	275.36	275.46	275.50	275.50	276.74	276.67	276.19	276.69	276.68	276.02	275.63	275.89	275.56	275.57	276.92	276.77	276.78	276.54	276.55
276.17	275.43	275.80	276.13	276.14	276.45	276.15	276.37	276.59	276.60	276.46	276.13	276.01	276.34	276.33	276.87	276.75	276.98	276.99	276.99	276.27	276.04	275.90	275.68	275.70	274.89	274.19	274.49	275.01	275.00	276.29	275.89	275.97	276.27	276.28	276.60	276.29	276.34	276.32	276.31	277.64	277.90	277.25	277.90	277.91	276.47	276.21	275.73	276.64	276.66	276.88	276.74	276.37	276.47	276.49
276.32	275.94	275.98	275.77	275.78	278.04	278.57	278.59	278.84	278.87	275.75	275.35	275.14	275.76	275.76	277.39	277.42	277.54	277.11	277.12	276.15	275.78	275.60	275.66	275.66	275.59	274.96	275.27	275.85	275.85	276.98	276.85	277.11	276.90	276.91	276.59	276.45	275.96	275.66	275.66	277.21	277.35	277.15	277.23	277.21	275.66	275.29	275.21	275.57	275.56	276.27	276.07	276.62	276.41	276.39
276.30	275.84	275.77	276.03	276.02	276.33	276.23	275.85	275.85	275.87	276.71	276.51	276.51	276.85	276.85	275.90	275.48	275.62	276.09	276.09	276.43	276.11	276.50	276.51	276.51	275.86	275.38	275.44	275.65	275.66	276.73	276.59	276.80	277.12	277.15	277.42	277.55	277.29	276.16	276.17	277.65	277.69	277.23	277.35	277.38	275.16	274.43	274.80	275.25	275.24	276.90	276.89	276.70	276.88	276.88
276.58	276.32	275.85	276.36	276.35	276.14	275.85	275.86	276.14	276.14	276.48	276.39	276.49	276.71	276.70	276.19	275.98	276.12	276.40	276.41	276.61	276.52	276.35	276.32	276.33	275.46	274.97	275.32	275.61	275.59	276.46	276.41	276.40	276.54	276.56	276.38	276.16	275.91	275.51	275.52	277.27	277.29	276.89	277.15	277.16	276.09	275.60	275.41	276.10	276.11	276.84	276.65	276.74	276.24	276.25
276.37	276.22	276.23	276.06	276.04	276.08	275.73	276.00	276.18	276.19	276.90	276.60	276.61	276.67	276.68	276.37	276.16	276.23	276.59	276.59	275.54	275.10	275.18	275.24	275.25	274.27	273.48	273.88	274.73	274.72	275.17	274.57	274.86	275.11	275.13	276.42	276.25	276.19	275.63	275.63	276.18	276.02	275.70	275.99	275.99	275.69	275.10	275.56	275.92	275.91	277.25	277.18	276.90	276.79	276.80
276.01	275.34	274.86	274.50	274.49	274.80	274.04	274.46	275.62	275.62	276.00	275.36	275.75	275.89	275.90	276.25	275.96	275.86	275.89	275.88	277.09	276.96	276.92	276.90	276.91	276.19	275.82	276.21	276.59	276.60	275.91	275.65	275.98	276.34	276.34	276.17	275.77	275.97	275.33	275.34	276.10	275.94	275.75	275.96	275.97	275.46	275.00	275.10	275.82	275.83	276.47	276.23	276.28	276.73	276.75
276.83	276.67	276.33	276.30	276.31	275.93	275.80	275.78	276.07	276.08	276.62	276.31	276.32	276.52	276.52	276.40	276.13	276.02	276.16	276.15	276.71	276.64	276.25	276.19	276.18	276.13	275.78	275.48	275.43	275.44	276.39	276.11	276.04	276.06	276.06	275.70	275.03	275.36	275.44	275.45	276.40	276.17	275.78	276.13	276.14	274.98	274.24	274.85	275.32	275.31	276.26	275.84	275.62	275.74	275.75
276.95	276.75	276.34	276.27	276.27	276.21	276.12	276.32	276.96	276.96	276.91	276.94	276.72	276.81	276.80	276.00	275.61	275.68	276.07	276.07	276.65	276.45	276.24	276.29	276.28	276.16	275.75	275.72	276.31	276.33	275.85	275.60	275.45	275.65	275.65	275.50	274.90	275.00	275.22	275.22	276.58	276.53	276.24	276.91	276.90	275.47	274.65	274.79	275.62	275.64	275.83	275.47	275.85	275.87	275.85
277.02	276.96	276.79	277.03	277.04	276.93	277.02	276.97	277.21	277.23	276.03	275.50	275.81	275.75	275.75	276.43	276.26	276.30	276.49	276.49	277.24	277.36	277.06	276.77	276.79	275.63	274.99	275.35	275.40	275.40	276.18	275.97	275.93	276.10	276.09	276.74	276.53	276.79	276.21	276.22	276.96	277.01	276.71	276.78	276.76	275.26	274.72	274.81	275.37	275.35	276.28	275.82	276.32	276.38	276.39
276.31	276.00	275.66	276.23	276.22	276.63	276.48	276.64	277.03	277.04	276.55	276.20	276.41	276.08	276.09	276.04	275.62	275.78	276.09	276.07	276.21	275.76	276.32	276.31	276.32	275.85	275.43	275.89	276.16	276.17	276.60	276.53	276.56	276.69	276.69	276.54	276.27	276.13	275.74	275.75	277.03	277.25	276.92	277.23	277.24	275.85	275.20	275.52	276.04	276.05	275.93	275.53	275.63	275.67	275.67
276.44	276.06	275.81	276.12	276.13	278.06	278.47	278.33	278.30	278.31	276.72	276.59	276.26	276.13	276.14	276.14	275.79	275.97	276.35	276.34	276.02	275.59	275.71	275.46	275.47	275.35	274.63	275.48	275.97	275.98	275.84	275.47	275.67	275.35	275.36	276.44	276.27	276.30	275.80	275.79	276.28	275.98	276.17	276.42	276.42	275.54	274.97	275.45	275.86	275.84	275.97	275.36	275.61	276.05	276.03
276.34	275.98	276.21	275.80	275.80	276.47	276.37	276.29	276.67	276.66	275.63	275.02	275.35	275.69	275.70	276.88	276.77	276.85	276.92	276.91	276.15	275.80	275.87	276.03	276.04	276.50	276.09	276.31	276.87	276.88	275.79	275.54	275.46	275.82	275.83	276.79	276.70	276.69	276.07	276.07	275.77	275.37	275.47	276.14	276.14	274.97	274.36	274.85	275.45	275.45	275.89	275.54	275.49	275.98	275.98
277.44	277.53	277.35	277.41	277.41	275.94	275.53	275.86	276.29	276.31	276.80	276.60	276.76	276.80	276.83	276.51	276.26	276.22	276.62	276.64	275.89	275.31	275.48	275.69	275.69	276.03	275.80	276.04	275.98	276.00	276.97	276.94	277.04	276.91	276.93	275.78	275.36	275.16	275.03	275.03	275.71	275.18	275.85	275.80	275.81	276.22	275.72	275.55	275.94	275.94	275.44	274.74	274.95	275.04	275.03
277.02	276.87	276.69	276.72	276.74	276.40	276.32	276.26	276.48	276.49	276.67	276.45	276.49	276.51	276.51	275.85	275.49	275.81	275.81	275.82	276.24	275.97	276.04	275.88	275.88	276.71	276.60	276.72	276.78	276.79	275.75	275.38	275.33	275.80	275.80	276.85	276.69	276.36	275.88	275.88	275.69	275.23	275.53	275.95	275.94	275.79	275.55	275.98	275.73	275.72	275.41	274.77	275.23	275.41	275.43
276.57	276.37	275.77	275.91	275.92	275.95	275.72	275.78	276.25	276.27	276.08	275.67	275.65	275.92	275.91	277.51	277.69	277.71	278.07	278.08	275.72	275.25	275.42	275.72	275.73	276.34	275.99	276.12	275.97	275.97	276.72	276.54	276.42	276.49	276.49	275.70	275.28	275.05	274.95	274.97	275.73	275.35	275.26	275.75	275.75	276.52	276.32	276.29	276.38	276.35	276.28	275.98	276.39	276.09	276.10
276.82	276.58	276.34	276.47	276.47	275.90	275.56	275.80	276.31	276.31	276.51	276.26	276.74	276.79	276.83	276.45	276.13	276.09	276.27	276.27	275.69	275.08	275.11	275.46	275.46	276.18	275.62	276.03	275.99	276.00	276.25	276.25	276.09	275.95	275.96	275.79	275.45	275.38	275.29	275.27	276.88	276.98	276.29	277.02	277.02	276.39	276.17	275.86	276.08	276.08	276.10	275.73	275.89	275.95	275.94
276.34	275.94	275.74	275.81	275.80	276.72	276.58	276.86	277.51	277.51	276.04	275.61	275.86	275.82	275.84	276.81	276.70	276.59	276.30	276.31	276.12	275.71	275.91	275.85	275.85	276.31	275.97	276.24	276.07	276.07	275.00	274.40	274.97	275.98	275.98	275.43	274.84	274.98	274.65	274.67	276.46	276.23	276.24	276.62	276.62	276.92	276.79	276.14	276.64	276.65	276.41	276.04	276.19	276.10	276.09
276.29	275.80	275.38	275.63	275.63	276.47	276.56	276.39	276.43	276.43	275.88	275.32	275.73	275.65	275.66	276.66	276.57	276.54	276.55	276.57	275.70	275.07	275.43	275.48	275.49	276.46	276.21	276.48	276.46	276.46	275.95	275.60	275.66	275.45	275.46	276.56	276.34	276.38	275.59	275.59	276.61	276.47	276.21	276.20	276.21	276.27	275.98	276.14	276.11	276.12	276.38	276.20	276.30	276.26	276.27
276.06	275.65	275.66	275.73	275.73	275.91	275.72	275.53	276.09	276.08	276.39	276.20	276.52	277.03	277.04	276.93	276.98	276.81	277.10	277.10	276.05	275.68	275.54	275.79	275.78	275.82	275.33	275.52	275.74	275.74	276.32	276.12	275.98	276.57	276.56	276.42	276.12	276.25	275.90	275.89	276.27	276.02	276.17	276.41	276.42	275.81	275.40	275.48	275.83	275.82	275.64	275.18	275.46	276.03	276.02
276.58	276.49	276.34	276.62	276.63	276.10	275.89	276.20	276.58	276.59	276.48	276.31	275.90	275.76	275.77	276.60	276.38	276.11	276.76	276.76	275.84	275.45	275.71	275.65	275.64	275.85	275.28	275.51	275.90	275.90	276.51	276.28	276.28	276.42	276.41	275.78	275.25	275.44	275.34	275.34	277.04	277.09	276.79	277.16	277.15	276.68	276.57	276.24	276.70	276.69	276.73	276.55	276.33	276.16	276.14
276.34	276.08	276.00	276.14	276.15	276.15	275.89	276.52	276.99	277.02	275.90	275.35	275.26	275.67	275.70	277.02	277.04	277.00	276.43	276.43	275.87	275.26	275.73	275.88	275.86	276.01	275.59	275.70	275.61	275.61	275.93	275.77	275.65	275.51	275.52	275.76	275.09	275.21	275.20	275.20	276.38	276.20	275.98	276.42	276.41	277.19	277.06	276.92	277.31	277.32	277.33	277.17	276.87	276.99	277.00
275.99	275.47	275.28	275.40	275.41	276.57	276.49	276.74	276.87	276.87	276.27	275.86	275.70	275.80	275.79	276.24	275.86	275.75	275.62	275.62	276.76	276.60	276.61	276.44	276.46	276.36	276.06	276.16	276.20	276.22	275.68	275.25	275.39	275.95	275.94	276.56	276.06	276.11	275.75	275.74	276.68	276.62	276.61	277.16	277.16	275.08	274.40	274.66	275.28	275.29	276.55	276.26	276.22	276.39	276.38
276.57	276.34	276.24	276.49	276.48	276.08	275.73	276.02	276.47	276.47	277.18	277.10	277.08	276.86	276.88	276.78	276.72	276.78	277.07	277.07	275.77	275.33	275.33	275.49	275.50	276.56	276.32	276.51	276.41	276.43	275.74	275.36	275.40	275.68	275.69	275.82	275.27	275.33	275.23	275.23	275.91	275.76	275.58	276.23	276.23	276.35	275.99	276.16	276.64	276.65	276.58	276.35	276.40	275.90	275.90
276.45	276.20	276.03	276.36	276.36	276.50	276.58	276.34	276.65	276.66	276.63	276.44	276.40	276.31	276.32	276.67	276.46	276.52	276.23	276.23	276.55	276.42	276.50	276.29	276.28	276.21	275.94	275.87	275.99	275.98	276.86	276.83	277.02	277.07	277.09	275.39	274.62	275.15	275.20	275.21	276.18	276.00	276.01	276.69	276.69	276.16	275.72	275.53	276.05	276.05	276.41	276.34	276.06	275.90	275.91
276.23	275.88	276.06	276.40	276.42	275.93	275.50	276.07	276.93	276.94	276.39	276.11	276.10	276.26	276.25	275.85	275.40	275.35	275.55	275.56	276.73	276.29	276.50	275.95	275.97	276.08	275.66	275.68	275.92	275.94	277.56	277.85	277.46	277.55	277.55	276.48	276.09	276.30	275.86	275.86	277.06	277.05	276.67	277.25	277.25	276.60	276.44	276.09	276.66	276.66	276.24	275.94	275.68	275.61	275.62
276.15	275.80	275.72	275.87	275.89	276.13	275.76	276.02	276.62	276.62	276.71	276.51	276.30	276.15	276.13	276.66	276.39	276.51	276.37	276.36	275.78	275.26	275.63	275.82	275.81	274.95	274.36	274.67	275.00	275.01	276.40	276.15	276.13	276.43	276.42	275.62	275.03	275.04	275.35	275.35	276.43	276.26	276.53	276.54	276.54	275.72	275.19	275.30	275.83	275.83	276.18	275.84	275.95	276.53	276.52
276.51	276.25	276.36	276.52	276.53	275.67	275.39	275.38	276.33	276.34	277.00	276.91	276.70	276.64	276.65	275.79	275.42	275.46	275.55	275.56	275.95	275.46	275.78	276.18	276.19	275.74	275.11	275.65	276.18	276.21	275.37	274.84	275.13	275.68	275.68	276.54	276.27	276.01	275.92	275.91	276.77	276.57	276.34	276.72	276.72	276.90	276.67	276.58	276.33	276.32	276.58	276.34	276.22	276.27	276.25
276.31	275.96	275.52	275.86	275.87	275.98	275.70	275.87	276.50	276.50	277.12	277.28	276.96	276.46	276.45	276.36	276.07	276.06	276.06	276.08	276.32	275.82	276.09	275.93	275.91	276.06	275.62	275.67	275.93	275.93	275.96	275.55	275.74	276.06	276.05	276.24	276.02	275.84	275.39	275.37	275.36	274.84	275.32	275.69	275.68	275.72	275.21	275.42	276.21	276.22	277.21	277.09	276.83	276.69	276.68
277.11	277.09	276.73	276.64	276.64	276.24	275.93	275.86	276.17	276.18	275.69	275.24	275.37	275.59	275.59	276.13	275.65	276.02	276.62	276.63	276.03	275.58	275.84	276.15	276.16	275.39	274.68	274.70	275.10	275.08	276.53	276.40	276.37	276.71	276.72	275.82	275.38	275.55	275.27	275.30	276.67	276.43	276.41	277.18	277.19	276.55	276.25	275.93	276.67	276.68	276.27	276.14	275.96	276.23	276.23
277.21	277.19	276.67	276.80	276.81	276.42	276.17	276.40	276.81	276.81	275.94	275.80	275.78	275.62	275.61	276.47	276.17	276.51	276.68	276.68	277.07	276.90	276.84	276.51	276.52	275.32	274.57	275.22	275.72	275.73	275.92	275.47	275.84	276.32	276.31	276.39	276.00	276.34	276.22	276.22	276.38	275.98	276.09	275.95	275.94	276.72	276.53	276.27	276.30	276.28	276.78	276.64	276.12	276.49	276.48
276.08	275.70	275.59	275.89	275.89	276.54	276.41	276.64	276.78	276.78	276.39	276.16	276.03	276.34	276.36	276.63	276.44	276.56	276.54	276.55	276.84	276.59	276.49	276.21	276.21	276.16	275.75	275.97	276.32	276.31	277.91	278.17	278.12	278.00	278.01	276.38	276.05	275.83	275.71	275.69	276.11	275.81	275.87	276.18	276.16	275.79	275.32	275.77	275.90	275.90	276.41	276.27	276.26	276.80	276.78
276.50	276.05	275.69	276.29	276.32	276.08	275.80	276.17	276.66	276.66	276.38	275.99	276.13	276.26	276.26	276.26	275.97	276.01	276.15	276.15	276.01	275.62	275.60	275.76	275.78	275.85	275.26	275.43	275.44	275.46	275.69	275.35	275.37	275.96	275.96	275.79	275.16	275.25	275.50	275.51	276.51	276.51	276.38	276.93	276.93	276.23	275.78	275.96	276.46	276.46	276.47	276.18	276.29	276.21	276.20
276.74	276.59	276.29	275.96	275.96	276.64	276.54	276.93	277.37	277.36	276.24	275.95	276.04	276.35	276.33	276.94	276.82	276.98	276.78	276.78	276.83	276.64	276.84	276.92	276.94	275.44	274.89	275.45	275.79	275.79	276.14	275.78	275.68	275.77	275.76	275.69	275.13	275.15	275.14	275.13	276.17	276.03	275.91	276.86	276.84	276.24	275.92	276.41	276.14	276.12	275.89	275.57	275.83	275.67	275.66
276.67	276.33	276.51	276.63	276.62	276.80	276.97	276.83	276.71	276.72	276.70	276.54	276.32	276.64	276.66	277.34	277.40	277.31	277.57	277.58	275.63	275.02	275.39	275.77	275.78	275.45	274.75	275.05	275.37	275.37	275.97	275.56	275.88	276.55	276.58	275.71	275.09	274.92	275.00	275.00	275.73	275.35	275.66	275.94	275.94	276.81	276.71	276.24	276.71	276.70	275.63	275.08	275.42	275.49	275.48
276.58	276.39	276.49	276.71	276.72	276.18	276.07	276.12	276.65	276.68	276.54	276.33	276.12	275.67	275.69	276.32	276.14	276.35	276.41	276.41	275.75	275.16	275.51	275.59	275.58	274.57	273.79	274.03	274.60	274.61	275.75	275.32	275.25	275.26	275.26	276.02	275.56	275.51	275.49	275.49	276.09	275.78	276.10	276.07	276.07	276.63	276.40	276.35	276.40	276.42	277.03	277.00	276.61	276.92	276.93
276.42	276.09	275.97	276.03	276.01	275.51	275.06	275.28	276.06	276.06	276.79	276.71	276.54	276.78	276.79	277.07	276.99	276.92	277.16	277.15	275.67	274.96	275.13	275.49	275.47	275.66	275.20	275.18	275.37	275.37	275.79	275.36	275.62	276.14	276.16	276.45	276.14	276.05	275.70	275.70	276.30	276.07	275.76	276.45	276.47	275.73	275.27	275.16	275.71	275.70	275.96	275.54	275.56	275.35	275.34
276.49	276.21	275.96	276.22	276.23	275.39	274.99	275.08	276.17	276.19	276.70	276.48	276.55	276.85	276.84	276.17	275.92	276.05	276.04	276.04	276.93	276.90	276.69	276.24	276.25	275.40	274.73	274.73	275.13	275.13	276.27	276.02	275.98	275.79	275.82	276.38	276.06	276.19	275.90	275.89	276.51	276.20	276.17	276.40	276.41	276.17	275.76	275.75	276.15	276.14	276.46	276.45	276.33	276.18	276.19
276.20	275.79	275.50	275.65	275.65	276.83	276.81	276.87	277.30	277.31	277.35	277.59	277.19	276.92	276.92	276.03	275.55	275.65	276.13	276.14	275.97	275.72	275.71	275.69	275.69	276.70	276.35	276.60	276.61	276.61	276.61	276.46	276.54	276.62	276.63	276.66	276.41	276.31	275.79	275.79	276.80	276.80	276.63	277.29	277.29	275.79	275.35	275.45	275.77	275.75	275.89	275.64	275.81	275.70	275.69
276.67	276.29	276.55	276.54	276.55	276.67	276.56	276.88	277.25	277.26	276.39	276.05	275.93	275.53	275.54	276.47	276.24	276.32	276.80	276.81	276.00	275.69	276.02	275.83	275.83	275.83	275.33	275.67	276.02	276.02	276.53	276.36	276.17	276.17	276.18	275.82	275.27	275.30	275.15	275.15	276.82	276.78	276.72	276.59	276.59	275.11	274.42	274.68	274.95	274.94	276.72	276.65	276.78	276.78	276.78
276.74	276.56	276.62	276.61	276.60	275.73	275.35	275.75	276.23	276.22	276.82	276.62	276.66	277.01	277.03	275.65	275.08	275.30	275.58	275.59	276.50	276.10	276.32	276.19	276.19	275.68	275.28	275.43	275.55	275.56	276.34	276.05	276.21	276.50	276.50	276.21	275.75	275.99	276.00	275.99	276.53	276.44	276.21	276.84	276.85	275.37	274.57	275.11	275.42	275.44	275.96	275.54	275.77	275.56	275.55
276.00	275.54	275.45	275.43	275.44	275.39	274.75	275.26	275.93	275.93	276.75	276.67	276.49	276.64	276.65	275.93	275.60	275.67	275.69	275.69	275.77	275.26	275.09	275.08	275.06	276.21	275.79	276.10	276.32	276.31	276.53	276.37	276.38	276.61	276.61	276.39	275.90	275.76	275.53	275.53	276.53	276.34	276.35	276.71	276.72	275.48	274.85	275.09	275.30	275.31	276.32	275.98	276.01	275.92	275.90
276.70	276.51	276.50	276.59	276.61	276.06	275.75	276.48	277.03	277.05	276.29	275.97	275.85	275.83	275.83	275.40	274.74	275.33	275.30	275.30	277.02	276.97	277.07	277.07	277.11	275.24	274.62	275.20	275.59	275.60	277.26	277.42	277.00	276.89	276.91	275.80	275.31	275.12	274.84	274.84	276.85	276.86	277.11	277.04	277.03	274.60	273.79	274.58	275.05	275.05	276.29	276.10	275.73	276.13	276.15
276.49	276.21	275.91	276.47	276.49	276.56	276.40	276.59	276.84	276.87	276.29	275.91	276.02	276.40	276.42	276.29	275.90	276.07	276.11	276.09	276.86	276.84	277.10	276.79	276.78	275.83	275.36	276.00	276.32	276.34	275.85	275.45	275.48	275.43	275.45	276.74	276.56	276.29	276.05	276.06	276.68	276.53	276.40	276.71	276.70	276.26	275.87	276.26	276.60	276.60	277.02	277.02	276.64	276.87	276.89
276.20	275.69	275.78	275.80	275.79	275.38	274.89	275.11	275.50	275.53	276.66	276.54	276.20	275.95	275.95	276.15	275.66	276.00	276.06	276.08	276.87	276.79	276.74	276.86	276.87	276.35	275.88	276.05	276.17	276.18	276.57	276.38	276.64	276.99	276.99	275.93	275.50	275.36	274.88	274.88	276.83	276.88	276.35	276.84	276.84	275.54	274.95	275.58	275.78	275.80	276.14	275.85	275.80	276.08	276.08
276.59	276.49	276.38	276.64	276.64	275.54	274.95	275.53	276.25	276.24	276.81	276.68	276.54	276.23	276.24	275.80	275.26	275.70	275.82	275.81	276.19	275.87	275.74	276.10	276.09	275.94	275.43	275.87	275.78	275.76	276.79	276.62	276.75	276.68	276.69	276.00	275.57	275.77	275.49	275.50	276.26	275.97	275.86	276.24	276.25	275.65	275.09	275.58	276.02	276.03	276.30	276.05	276.12	276.23	276.23
276.59	276.40	276.03	276.24	276.23	276.53	276.37	276.56	276.82	276.82	277.15	277.02	277.36	277.59	277.62	276.16	275.80	276.13	276.58	276.60	275.95	275.58	275.46	275.60	275.59	275.78	275.27	275.62	275.82	275.82	275.78	275.52	275.27	275.49	275.49	276.39	276.03	276.40	275.75	275.77	276.23	275.79	275.96	276.45	276.45	275.59	275.03	275.11	275.86	275.89	276.45	276.23	276.00	275.91	275.92
276.19	275.80	275.84	275.97	275.97	276.91	276.80	276.99	277.04	277.03	277.27	277.22	277.34	277.23	277.25	276.09	275.67	275.67	275.66	275.66	276.36	275.99	275.98	276.06	276.08	275.59	274.89	275.61	276.03	276.04	276.37	275.90	276.00	276.42	276.41	277.18	276.94	276.98	276.09	276.07	276.91	276.84	276.81	277.45	277.46	275.84	275.28	275.59	275.61	275.61	275.63	275.09	275.50	275.47	275.48
276.09	275.66	275.27	275.26	275.24	276.96	277.12	277.03	277.01	277.02	276.18	275.97	275.72	275.71	275.72	276.03	275.50	275.93	276.36	276.38	276.32	276.11	275.93	276.28	276.28	276.34	276.07	276.30	276.42	276.41	276.45	276.12	276.22	276.34	276.35	276.87	276.83	276.46	275.72	275.74	276.90	276.91	276.91	277.34	277.32	276.18	275.75	275.54	276.15	276.15	275.38	274.87	275.11	275.55	275.54
276.58	276.38	276.21	276.44	276.46	276.37	276.28	276.38	276.78	276.79	276.76	276.60	276.71	276.68	276.70	275.65	275.09	275.35	276.03	276.03	277.28	277.34	277.54	277.43	277.42	275.11	274.36	274.60	275.10	275.11	277.09	277.17	276.87	276.45	276.45	276.36	276.03	276.28	275.52	275.52	276.34	276.18	276.19	276.33	276.33	277.06	277.02	276.63	277.01	277.01	275.74	274.98	275.44	275.57	275.57
276.19	275.92	275.95	276.12	276.13	275.81	275.54	275.47	276.02	276.03	276.42	276.11	276.46	276.51	276.50	275.25	274.51	275.05	276.16	276.17	276.49	276.21	276.18	275.82	275.84	275.68	275.04	275.26	275.87	275.86	277.39	277.53	277.21	277.06	277.06	276.32	276.11	275.83	275.39	275.39	276.06	275.67	275.41	275.76	275.76	276.10	275.70	275.69	275.97	275.99	276.43	276.13	276.29	276.10	276.10
276.04	275.51	275.82	276.04	276.04	277.13	277.23	277.29	277.68	277.69	276.73	276.36	276.69	276.48	276.47	276.37	276.00	276.47	276.83	276.84	276.97	276.98	276.95	276.57	276.58	276.35	275.97	276.07	276.51	276.53	277.68	277.92	277.80	277.49	277.51	277.16	277.04	277.09	276.87	276.86	275.75	275.43	275.54	276.01	276.01	276.17	275.58	275.64	275.95	275.96	276.78	276.67	276.41	276.57	276.57
276.97	276.82	276.49	276.60	276.58	276.86	277.03	276.92	276.66	276.66	276.16	275.72	276.04	276.29	276.28	275.46	274.87	275.47	275.81	275.81	276.86	276.77	276.65	276.40	276.39	276.18	275.67	276.04	276.01	276.01	276.49	276.36	276.21	276.13	276.12	275.54	274.97	275.08	275.06	275.07	276.08	275.81	276.06	276.27	276.27	275.24	274.63	274.85	275.59	275.61	276.15	275.70	275.46	276.03	276.02
275.76	275.31	275.13	275.32	275.32	276.45	276.49	276.23	276.48	276.48	276.69	276.40	276.58	276.72	276.72	275.22	274.62	275.06	275.16	275.15	276.76	276.74	276.52	276.39	276.40	275.78	275.30	275.62	275.95	275.95	276.86	276.93	277.01	276.79	276.80	276.46	276.19	276.23	275.64	275.64	277.22	277.28	276.97	277.27	277.27	275.17	274.52	274.89	275.39	275.39	275.61	275.19	275.44	275.31	275.31
276.16	275.67	275.32	275.73	275.75	276.64	276.68	276.78	277.60	277.61	276.73	276.42	276.72	276.87	276.89	275.34	274.67	275.07	275.85	275.84	275.25	274.60	274.88	275.37	275.37	275.50	275.05	275.35	276.07	276.10	277.13	277.23	277.10	277.16	277.18	276.25	275.91	275.86	275.37	275.36	275.66	275.10	275.57	275.91	275.91	275.23	274.67	275.04	275.29	275.30	276.02	275.57	275.38	275.90	275.90
275.96	275.46	275.61	275.59	275.58	276.66	276.74	276.43	276.53	276.53	277.09	276.91	276.82	276.92	276.94	276.74	276.45	276.62	276.77	276.78	276.90	276.74	276.96	277.13	277.11	276.08	275.72	275.90	276.30	276.33	276.37	276.21	275.95	275.87	275.87	276.33	276.13	275.97	275.52	275.52	275.77	275.59	276.09	276.53	276.55	275.29	274.66	275.13	275.52	275.53	276.14	275.79	275.76	276.38	276.38
276.34	276.20	275.81	275.96	275.96	276.09	275.81	276.03	276.50	276.50	276.37	275.97	276.39	276.44	276.44	276.17	275.75	275.86	276.10	276.10	275.64	275.07	275.18	275.79	275.79	276.76	276.70	276.78	277.09	277.09	275.48	275.12	275.25	275.75	275.77	275.85	275.33	275.65	275.38	275.39	276.02	275.81	275.95	276.89	276.89	276.40	276.02	275.94	276.26	276.25	275.93	275.53	275.53	275.69	275.67
276.46	276.16	276.08	276.37	276.38	276.74	276.64	276.83	276.68	276.70	276.74	276.52	276.67	276.63	276.65	275.79	275.34	275.45	275.87	275.87	275.39	274.69	275.05	275.42	275.44	276.76	276.56	276.40	276.39	276.39	276.34	276.21	276.19	276.39	276.40	276.52	276.36	276.28	275.69	275.70	276.55	276.29	276.26	276.63	276.64	276.57	276.38	276.28	276.58	276.60	276.11	275.79	275.98	275.92	275.92
276.52	276.11	276.05	276.13	276.12	276.91	276.99	276.92	277.36	277.41	276.76	276.58	276.42	276.40	276.40	275.57	274.99	275.13	275.71	275.70	275.78	275.23	275.36	275.59	275.59	276.48	276.26	276.26	276.13	276.13	276.65	276.75	276.78	276.51	276.53	276.82	276.78	276.61	276.20	276.20	276.51	276.29	276.26	276.55	276.56	276.53	276.39	276.28	276.31	276.30	276.86	276.68	276.02	276.18	276.18
276.69	276.46	276.60	276.67	276.67	276.63	276.65	276.74	276.97	276.96	276.00	275.56	275.97	276.72	276.74	276.05	275.54	275.87	276.02	276.02	276.92	276.76	276.87	276.40	276.39	276.34	276.04	276.36	276.63	276.67	277.04	277.05	276.93	276.77	276.77	276.27	275.96	275.94	275.45	275.47	276.82	276.78	276.58	276.99	277.00	275.76	275.34	275.71	275.86	275.86	276.60	276.51	276.35	276.58	276.57
276.31	275.93	275.60	275.57	275.58	276.89	276.89	276.61	276.56	276.55	276.29	275.95	276.10	276.81	276.81	276.39	276.16	276.28	276.43	276.44	276.82	276.67	276.47	276.25	276.25	276.33	275.96	276.10	276.11	276.11	276.87	276.74	277.00	277.29	277.28	276.27	275.89	276.04	275.97	275.98	276.24	275.99	275.92	276.07	276.09	276.49	276.35	276.13	276.50	276.49	276.17	275.97	275.88	276.01	276.02
275.96	275.35	275.34	275.41	275.42	275.82	275.49	275.64	276.80	276.84	276.56	276.30	276.37	276.83	276.84	276.39	276.26	276.37	276.73	276.76	275.74	275.29	275.17	275.61	275.61	276.60	276.51	276.86	277.03	277.05	276.53	276.43	276.58	276.37	276.39	276.15	275.60	276.01	275.51	275.50	276.65	276.54	276.11	276.56	276.55	276.04	275.62	275.77	275.90	275.91	275.86	275.50	275.52	275.37	275.36
276.31	275.86	276.23	276.43	276.43	277.46	277.83	277.76	277.86	277.90	276.74	276.44	276.38	276.67	276.68	276.47	276.09	276.41	276.84	276.86	276.72	276.52	276.66	276.42	276.41	276.46	276.30	276.10	276.05	276.06	276.37	276.04	276.36	276.48	276.51	276.56	276.21	276.67	276.17	276.19	276.55	276.50	275.96	276.64	276.63	276.19	275.82	275.41	276.25	276.26	276.42	276.21	276.24	276.42	276.42
276.18	275.94	276.00	276.45	276.47	277.47	277.75	277.31	277.20	277.23	276.42	276.21	276.35	276.55	276.58	277.16	277.18	277.13	277.12	277.12	275.91	275.49	275.66	276.10	276.10	276.83	276.91	276.72	276.59	276.59	275.50	274.88	275.50	276.09	276.10	275.65	274.94	275.04	275.05	275.05	276.03	275.74	275.94	276.72	276.70	276.09	275.55	275.60	275.86	275.86	275.11	274.47	274.89	275.19	275.19
275.45	274.92	274.93	275.32	275.33	276.87	277.00	276.75	276.92	276.90	276.58	276.35	276.53	276.43	276.42	275.47	274.79	274.93	275.46	275.44	276.20	275.84	275.69	275.64	275.64	276.12	275.81	275.66	275.61	275.62	275.95	275.46	275.67	275.85	275.81	276.32	275.97	276.07	275.66	275.65	276.36	276.32	276.16	276.56	276.55	276.70	276.69	276.29	276.59	276.59	275.84	275.38	275.38	275.69	275.69
276.21	275.89	275.75	276.09	276.08	276.62	276.68	276.81	277.70	277.69	277.00	276.91	276.75	276.75	276.77	276.16	275.85	276.01	276.45	276.47	276.13	275.73	275.84	276.08	276.08	275.93	275.50	275.42	275.50	275.49	276.74	276.61	276.82	276.70	276.71	275.57	274.95	275.07	274.77	274.79	276.59	276.58	275.99	276.28	276.27	275.76	275.31	275.46	276.38	276.37	276.94	276.66	276.25	276.88	276.89
277.17	277.01	276.91	276.55	276.54	276.61	276.64	276.43	276.56	276.56	276.54	276.23	276.64	276.64	276.64	275.31	274.79	275.39	275.93	275.93	276.13	275.81	275.95	276.14	276.14	275.54	275.11	275.20	275.80	275.81	276.26	276.26	276.42	276.53	276.52	276.06	275.60	275.74	275.30	275.30	276.58	276.37	276.22	276.09	276.08	276.32	276.06	276.30	276.46	276.46	276.67	276.57	276.30	276.53	276.54
275.84	275.31	275.00	274.98	274.99	275.93	275.63	275.76	276.08	276.08	276.81	276.86	277.19	277.45	277.46	277.04	276.95	277.29	277.27	277.29	276.09	275.68	275.83	275.92	275.92	276.36	276.15	276.31	276.31	276.30	276.46	276.25	276.41	276.51	276.52	276.20	275.70	276.00	275.65	275.65	276.91	276.70	276.78	276.85	276.86	276.11	275.75	276.15	275.91	275.92	276.98	276.96	276.67	276.88	276.86
276.14	275.77	275.81	275.77	275.75	277.45	277.69	277.54	277.37	277.38	276.16	275.90	275.87	275.93	275.93	276.71	276.50	276.74	276.78	276.80	276.50	276.26	276.41	276.17	276.17	277.14	277.16	277.33	276.73	276.76	276.07	275.72	275.83	276.02	276.02	275.89	275.35	275.80	275.45	275.45	276.30	276.02	275.99	275.64	275.64	276.17	275.82	276.19	276.34	276.37	276.15	275.82	275.86	276.07	276.07
275.88	275.12	275.08	275.61	275.62	276.61	276.49	276.56	276.77	276.77	276.86	276.63	276.82	277.06	277.05	276.68	276.38	276.85	276.88	276.87	276.47	276.14	276.23	276.34	276.34	276.60	276.64	276.40	276.56	276.57	276.63	276.51	276.77	276.95	276.96	276.62	276.30	276.52	276.44	276.45	275.73	275.40	275.64	276.00	276.00	275.45	274.93	275.20	275.44	275.44	275.48	275.06	275.20	275.52	275.53
276.90	276.70	276.79	276.96	276.95	276.11	275.98	276.06	276.18	276.18	276.63	276.41	276.45	276.38	276.39	278.10	278.36	278.42	278.09	278.11	275.26	274.61	274.76	274.93	274.92	275.67	275.23	275.21	275.68	275.68	276.82	276.75	276.82	276.77	276.76	275.98	275.55	275.55	275.53	275.54	276.58	276.46	276.48	276.59	276.61	276.40	275.96	276.23	276.60	276.60	275.95	275.49	275.57	276.04	276.04
276.71	276.28	276.21	276.45	276.46	276.47	276.41	276.21	276.44	276.45	275.98	275.41	275.58	275.67	275.66	276.88	276.91	276.58	276.19	276.19	276.70	276.43	276.63	276.34	276.34	276.04	275.41	275.44	275.40	275.38	276.32	276.14	276.14	276.44	276.43	275.67	275.15	275.45	275.31	275.33	276.06	275.67	276.00	276.09	276.09	276.80	276.63	276.64	277.09	277.08	276.30	276.09	275.73	276.71	276.70
277.43	277.47	276.88	276.82	276.84	276.06	275.69	276.00	276.37	276.37	275.95	275.53	275.49	276.04	276.07	276.53	276.54	276.23	276.50	276.52	276.57	276.22	276.70	276.75	276.76	277.03	276.87	277.01	276.92	276.93	276.39	276.04	276.16	276.61	276.62	276.11	275.79	275.77	274.90	274.91	276.47	276.26	276.08	277.14	277.14	276.54	276.28	276.21	276.61	276.62	275.47	274.86	275.34	275.19	275.18
276.37	276.06	276.35	276.12	276.13	275.94	275.66	276.16	276.94	276.96	276.91	276.80	276.70	276.79	276.81	276.45	276.23	276.53	276.69	276.70	276.18	275.72	276.08	276.09	276.10	277.07	277.28	277.18	276.99	277.01	276.36	276.06	276.19	275.95	275.93	277.13	277.04	277.08	276.61	276.62	276.35	276.16	275.89	276.26	276.26	275.83	275.34	275.38	275.79	275.80	276.13	275.78	275.62	275.78	275.78
276.42	275.85	276.02	276.21	276.20	276.28	276.24	276.46	276.84	276.84	276.31	275.95	275.96	276.04	276.05	275.91	275.36	275.75	276.01	276.02	276.65	276.28	276.36	276.05	276.06	276.84	276.97	276.52	276.23	276.22	276.05	275.75	276.01	276.27	276.27	275.45	274.80	274.90	274.66	274.66	275.71	275.34	275.53	276.19	276.19	275.50	274.81	275.33	275.62	275.62	276.39	276.07	276.06	276.76	276.77
276.59	276.23	276.28	276.47	276.47	276.15	276.05	276.27	276.37	276.38	276.10	275.60	275.42	275.51	275.52	276.49	276.24	276.33	276.64	276.65	276.27	275.88	276.01	276.20	276.20	275.70	275.13	275.61	275.88	275.88	277.81	278.13	277.99	277.73	277.73	275.85	275.39	275.59	275.43	275.43	276.44	276.33	276.23	277.01	277.00	276.56	276.28	276.17	276.69	276.71	276.53	276.23	276.39	276.16	276.17
276.30	276.06	275.78	275.68	275.66	275.82	275.47	275.64	276.23	276.25	276.57	276.31	276.36	276.44	276.46	277.24	277.33	277.21	277.06	277.09	276.56	276.22	276.40	276.70	276.71	277.80	277.97	278.01	277.75	277.78	277.77	278.19	278.14	278.21	278.23	275.64	275.05	275.25	275.19	275.18	275.51	275.00	275.23	275.90	275.90	275.58	274.99	275.30	275.96	275.97	276.97	276.72	276.73	276.46	276.46
276.37	276.03	275.93	275.94	275.95	276.24	276.13	276.31	276.51	276.53	276.33	276.09	276.55	276.52	276.53	275.95	275.58	275.41	275.36	275.37	276.75	276.49	276.87	277.10	277.09	275.87	275.41	275.35	275.37	275.37	277.18	277.22	277.32	276.87	276.88	276.12	275.64	275.96	275.85	275.86	276.23	276.01	276.23	276.76	276.74	275.89	275.49	275.46	276.44	276.46	276.88	276.96	277.01	276.85	276.84
276.23	275.78	275.58	275.64	275.64	275.90	275.62	275.98	276.53	276.53	276.76	276.53	276.59	276.44	276.45	276.75	276.78	276.76	276.98	276.99	276.97	276.89	277.07	276.96	276.96	275.91	275.43	275.76	275.83	275.83	277.64	277.93	278.01	277.76	277.79	276.99	276.76	277.17	276.13	276.15	276.41	276.20	276.33	276.78	276.78	276.04	275.61	275.78	276.43	276.43	276.36	275.97	276.09	275.87	275.87
276.83	276.55	276.50	276.41	276.42	275.68	275.34	275.84	276.84	276.84	276.77	276.67	276.50	276.35	276.34	276.82	276.76	276.77	276.95	276.94	276.40	276.16	275.99	276.12	276.13	276.71	276.51	276.72	276.37	276.36	276.71	276.54	276.39	276.15	276.17	275.25	274.74	274.63	274.56	274.56	276.65	276.51	276.26	276.54	276.53	275.70	275.34	275.33	276.34	276.34	276.32	275.93	275.96	276.12	276.11
276.18	275.74	275.47	275.82	275.82	276.23	276.02	276.04	276.76	276.75	276.58	276.20	276.53	276.31	276.31	276.53	276.42	276.38	276.21	276.20	276.82	276.75	276.64	276.47	276.47	275.94	275.63	276.04	276.22	276.24	277.17	277.22	277.45	277.24	277.27	276.54	276.23	276.61	276.22	276.21	276.90	276.83	276.96	277.24	277.24	276.88	276.74	276.71	276.61	276.62	276.96	276.91	276.68	276.75	276.75
276.31	275.93	275.67	275.64	275.64	277.49	277.63	277.65	278.21	278.23	276.37	276.05	276.27	276.34	276.36	277.28	277.31	277.15	276.60	276.62	277.03	276.99	277.02	276.72	276.72	276.29	275.93	276.16	276.30	276.31	276.94	276.95	277.08	276.97	276.98	275.49	275.00	274.74	274.81	274.80	277.55	277.73	277.22	277.56	277.58	275.43	274.86	275.46	275.61	275.61	277.11	277.27	276.98	276.85	276.84
276.12	275.55	275.70	275.56	275.57	276.32	276.22	276.19	276.73	276.71	276.68	276.54	276.50	276.60	276.58	277.18	277.15	277.03	276.70	276.70	275.85	275.42	275.70	275.74	275.74	275.91	275.31	275.51	275.91	275.90	277.13	277.21	277.02	276.91	276.92	276.35	276.07	276.19	275.88	275.89	277.31	277.40	277.17	277.76	277.77	275.61	275.07	275.56	275.80	275.79	275.18	274.53	274.56	275.16	275.17
275.79	275.15	275.04	275.36	275.35	275.32	274.80	275.03	275.76	275.77	277.08	276.92	276.74	276.78	276.79	276.96	276.91	276.61	276.53	276.54	276.20	275.75	275.94	276.26	276.26	276.64	276.54	276.40	276.60	276.59	276.88	277.04	276.84	276.83	276.83	276.72	276.45	276.62	276.26	276.27	276.29	276.05	276.29	276.70	276.70	276.10	275.81	275.86	276.25	276.25	276.21	275.94	276.03	276.17	276.16
276.53	276.06	276.01	275.98	275.98	275.49	275.16	275.09	275.83	275.83	276.61	276.43	276.04	275.89	275.90	276.06	275.69	275.78	276.00	276.01	276.96	276.79	276.94	276.63	276.64	276.28	276.05	276.12	275.95	275.97	276.93	277.01	276.72	276.61	276.61	276.96	276.80	276.85	275.88	275.92	276.33	276.04	276.16	276.66	276.65	277.42	277.55	277.15	277.22	277.22	275.42	274.76	275.15	275.53	275.54
276.17	275.93	275.84	275.95	275.95	276.30	275.97	276.20	276.65	276.66	276.08	275.76	275.78	276.34	276.34	275.90	275.45	275.56	275.94	275.93	276.25	275.82	275.93	276.20	276.20	276.89	276.87	276.94	276.76	276.78	276.51	276.47	276.42	276.62	276.63	277.26	277.20	277.09	276.37	276.37	276.79	276.76	276.60	277.18	277.17	277.22	277.20	277.32	276.68	276.69	276.67	276.58	276.38	276.52	276.52
276.45	276.00	276.04	275.78	275.78	276.44	276.16	276.40	276.73	276.72	276.73	276.58	276.67	276.38	276.38	276.74	276.65	276.98	277.30	277.30	276.26	275.80	275.81	275.76	275.76	276.27	276.16	276.19	276.44	276.45	276.17	275.94	275.93	275.98	276.00	276.76	276.56	276.27	275.68	275.68	276.44	276.24	276.17	276.42	276.42	276.18	275.90	275.82	275.77	275.78	276.62	276.50	276.41	276.18	276.19
276.68	276.47	276.33	276.60	276.59	276.39	276.04	276.60	277.04	277.08	276.22	275.90	276.00	275.88	275.89	275.31	274.70	274.74	274.97	274.97	276.44	276.16	276.34	276.15	276.15	276.81	276.58	276.33	276.22	276.23	276.10	275.90	276.23	276.36	276.34	276.27	275.87	275.69	275.42	275.43	276.49	276.26	276.14	276.67	276.69	276.19	275.77	275.59	275.93	275.93	276.08	275.85	276.04	276.18	276.20
276.56	276.21	276.07	276.26	276.27	276.58	276.53	276.47	276.52	276.52	276.01	275.59	275.82	276.05	276.05	276.66	276.27	276.63	276.53	276.51	277.38	277.40	277.33	276.57	276.59	276.79	276.90	276.81	276.85	276.85	276.66	276.57	276.88	276.68	276.71	276.95	277.00	276.93	276.52	276.54	276.87	276.92	276.73	277.23	277.22	276.12	275.78	275.75	276.25	276.26	276.01	275.59	275.75	276.10	276.11
276.50	276.17	276.09	276.06	276.08	275.99	275.66	275.77	276.23	276.23	276.87	276.65	276.98	277.13	277.16	276.81	276.54	277.00	277.02	277.02	276.92	276.66	276.96	277.19	277.19	276.57	276.37	276.49	276.50	276.51	277.34	277.53	277.35	277.64	277.65	276.50	276.35	276.14	276.04	276.05	276.17	275.77	275.72	276.04	276.04	276.24	275.94	275.91	275.87	275.88	275.92	275.60	275.53	275.60	275.59
275.79	275.35	275.35	275.76	275.77	276.89	276.93	277.00	277.58	277.59	277.30	277.37	277.32	277.40	277.42	276.66	276.51	276.42	276.72	276.73	276.21	275.93	276.14	276.03	276.04	275.88	275.45	275.62	276.00	276.01	275.98	275.70	275.82	276.07	276.09	276.08	275.77	275.45	275.45	275.45	276.19	276.01	276.21	276.55	276.57	276.08	275.76	276.02	276.19	276.20	276.53	276.40	276.46	276.34	276.35
276.17	275.71	275.72	275.86	275.85	276.51	276.35	276.16	276.56	276.55	276.80	276.71	277.04	277.05	277.05	276.22	275.96	276.06	275.91	275.94	275.36	274.83	274.96	275.64	275.64	276.49	276.29	276.69	276.49	276.50	277.38	277.52	276.98	277.07	277.10	276.02	275.59	275.53	275.76	275.76	276.51	276.34	276.44	276.35	276.34	276.92	276.94	276.48	276.43	276.44	276.07	275.75	276.01	276.08	276.07
276.54	276.16	276.25	276.21	276.24	275.79	275.45	275.53	276.26	276.26	276.91	276.94	276.96	276.68	276.70	276.44	276.24	276.26	276.45	276.46	276.57	276.49	276.52	276.81	276.83	276.37	275.99	276.26	276.23	276.25	276.77	276.69	276.63	277.03	277.05	276.83	276.46	276.75	276.07	276.06	276.75	276.80	276.78	276.76	276.76	275.61	275.19	275.13	275.67	275.66	276.64	276.51	276.41	276.45	276.44
276.70	276.45	276.49	276.44	276.44	276.68	276.49	276.46	277.09	277.12	276.97	276.99	276.70	276.95	276.96	276.75	276.59	276.64	276.47	276.48	276.83	276.70	276.73	276.48	276.48	276.60	276.51	276.48	276.54	276.56	277.20	277.38	277.22	276.87	276.88	276.18	275.78	275.51	275.36	275.35	276.31	276.02	276.00	276.32	276.30	276.79	276.55	276.08	276.57	276.56	276.41	276.02	276.06	275.94	275.95
276.24	275.89	275.99	275.89	275.89	276.19	276.11	276.01	276.46	276.46	275.99	275.50	275.52	275.78	275.79	276.22	275.64	276.12	276.49	276.47	276.35	276.13	275.95	275.90	275.91	276.08	275.73	276.09	276.51	276.53	276.22	275.96	276.17	276.25	276.26	275.07	274.40	274.76	274.56	274.59	275.84	275.52	275.63	276.18	276.16	276.84	276.72	276.93	276.81	276.79	276.43	276.18	275.97	276.01	276.01
275.83	275.31	275.42	275.71	275.71	276.77	276.66	276.67	277.22	277.22	275.53	274.91	275.12	275.28	275.28	276.19	275.66	275.83	276.19	276.19	276.18	275.79	275.99	275.63	275.63	276.92	276.83	276.91	276.75	276.76	276.00	275.57	275.68	276.19	276.18	275.95	275.44	276.10	275.75	275.75	276.25	275.99	276.05	276.81	276.80	275.94	275.57	275.92	276.05	276.06	276.50	276.13	276.36	276.33	276.33
276.15	275.56	275.75	276.31	276.31	276.74	276.66	276.53	276.97	276.97	276.05	275.50	275.82	275.94	275.93	276.59	276.29	276.49	276.96	276.96	276.54	276.42	276.50	276.62	276.64	276.75	276.66	276.71	276.99	277.00	276.87	276.80	276.88	277.14	277.15	275.57	274.85	275.23	275.03	275.04	277.04	277.05	276.94	277.42	277.40	276.16	275.93	275.70	276.01	276.01	276.81	276.63	276.72	276.65	276.65
276.09	275.81	275.75	275.84	275.85	276.95	277.09	276.91	276.84	276.85	275.96	275.40	275.66	276.02	276.04	276.66	276.50	276.70	276.57	276.57	275.46	274.79	275.50	275.55	275.56	275.60	275.07	275.44	275.40	275.39	277.82	278.20	277.85	277.57	277.59	275.27	274.47	274.83	274.66	274.65	276.99	277.06	277.06	277.33	277.33	276.39	276.04	276.04	276.49	276.51	276.18	275.74	275.92	276.10	276.09
276.72	276.60	276.45	276.57	276.58	276.52	276.46	276.34	276.48	276.49	277.37	277.27	277.37	277.30	277.30	277.07	277.17	277.32	277.35	277.35	276.32	275.94	276.47	276.54	276.57	276.52	276.51	276.49	276.56	276.58	276.34	276.22	275.96	276.13	276.14	276.03	275.63	275.87	275.30	275.32	276.11	275.83	276.07	276.41	276.42	277.88	278.15	277.61	277.81	277.80	276.71	276.52	276.62	276.20	276.20
276.15	275.65	275.80	275.91	275.92	276.72	276.68	277.12	277.12	277.13	277.10	277.13	277.31	277.12	277.12	276.68	276.51	276.45	276.59	276.59	276.97	276.84	277.06	276.69	276.70	275.56	274.90	275.27	275.51	275.51	276.55	276.42	276.50	276.63	276.62	275.20	274.49	274.39	274.70	274.71	276.01	275.80	275.77	276.31	276.29	275.81	275.45	275.69	275.90	275.88	275.95	275.66	275.65	275.44	275.44
275.88	275.31	275.08	275.02	274.99	277.24	277.38	277.51	277.61	277.65	276.58	276.40	276.49	276.56	276.56	276.55	276.29	276.19	276.28	276.28	276.55	276.35	276.53	276.59	276.60	275.63	275.03	275.23	275.54	275.55	277.53	277.76	277.76	277.83	277.83	275.77	275.24	275.26	275.39	275.37	276.32	276.12	276.23	276.66	276.68	276.90	276.74	276.47	276.38	276.39	275.27	274.76	275.27	275.52	275.52
276.35	275.80	276.00	275.91	275.90	276.76	276.69	276.68	277.19	277.21	275.80	275.23	275.52	275.68	275.68	275.79	275.44	275.68	275.84	275.85	276.71	276.58	276.63	276.49	276.49	276.85	276.70	276.58	277.01	277.01	276.16	275.97	275.98	276.30	276.29	276.86	276.76	276.98	276.37	276.37	276.86	276.77	276.56	276.86	276.86	276.80	276.63	276.48	276.72	276.74	276.39	275.98	276.08	276.25	276.25
276.45	276.17	275.97	276.34	276.34	276.52	276.39	276.34	276.30	276.29	276.52	276.10	276.36	276.43	276.45	275.44	274.90	275.11	275.92	275.89	276.21	275.94	276.37	276.51	276.53	276.30	276.19	276.20	276.50	276.50	276.11	275.85	276.08	275.98	275.99	275.89	275.24	275.35	274.87	274.87	277.12	277.20	276.92	277.00	277.01	276.32	276.08	275.96	276.05	276.06	276.61	276.31	276.19	276.10	276.10
276.55	276.14	275.90	276.13	276.14	276.06	275.80	276.01	276.36	276.38	275.96	275.48	275.65	275.98	275.98	275.92	275.50	276.12	276.29	276.29	276.45	276.21	276.45	276.72	276.74	276.72	276.52	276.71	276.89	276.89	275.69	275.22	275.36	276.03	276.05	277.45	277.62	277.06	276.66	276.66	277.22	277.29	277.13	277.21	277.22	276.33	276.01	276.11	276.50	276.47	275.77	275.28	275.73	275.74	275.73
276.43	275.99	275.71	275.82	275.83	276.07	275.83	275.95	276.50	276.51	276.40	275.96	276.42	276.37	276.40	276.22	275.88	275.89	276.11	276.12	276.69	276.66	276.92	276.93	276.94	277.00	277.03	277.15	277.06	277.05	276.73	276.65	276.82	276.98	277.00	276.95	276.82	276.50	276.14	276.15	277.02	277.32	276.74	277.42	277.43	276.23	275.89	275.89	276.22	276.21	276.94	276.88	276.64	276.87	276.88
276.44	276.13	275.95	276.16	276.13	276.47	276.39	276.38	276.52	276.53	275.53	274.84	275.14	275.35	275.35	275.72	275.33	275.47	275.98	275.97	275.89	275.39	275.59	275.48	275.49	276.25	275.89	275.81	275.63	275.64	276.31	276.21	276.16	276.19	276.20	276.71	276.63	276.60	276.05	276.05	276.63	276.42	276.59	276.81	276.80	276.86	276.78	276.75	276.76	276.77	276.68	276.45	276.50	276.16	276.17
276.10	275.63	275.79	276.22	276.22	276.60	276.46	276.66	276.91	276.90	276.61	276.28	276.25	276.33	276.34	276.23	275.88	276.26	276.56	276.58	275.94	275.39	275.82	275.93	275.93	277.29	277.32	277.36	277.38	277.40	276.49	276.32	276.32	276.48	276.49	276.33	276.00	276.11	275.61	275.62	276.68	276.56	276.55	276.49	276.48	275.95	275.54	275.78	275.89	275.89	275.98	275.55	275.64	275.44	275.44
276.82	276.40	276.50	276.47	276.45	277.16	277.26	277.28	277.72	277.74	276.08	275.58	275.80	275.76	275.78	276.16	275.97	276.05	275.92	275.93	277.55	277.71	277.64	277.59	277.60	277.61	277.80	278.00	277.87	277.88	276.38	276.17	276.07	276.25	276.23	276.54	276.38	276.21	275.71	275.72	276.83	276.89	276.68	277.08	277.09	275.61	275.18	275.61	276.10	276.09	277.02	276.87	276.75	276.75	276.75
276.44	276.25	276.21	276.47	276.45	276.70	276.67	276.46	276.33	276.33	276.75	276.49	276.93	276.93	276.92	276.57	276.30	276.70	276.92	276.93	277.06	276.87	276.76	276.62	276.63	275.73	275.32	275.35	275.28	275.28	276.07	275.64	275.67	275.68	275.69	275.87	275.45	275.56	275.36	275.35	276.96	276.98	276.58	276.83	276.85	276.85	276.64	276.96	276.64	276.64	276.14	275.90	276.00	276.21	276.21
276.61	276.35	276.30	276.82	276.83	277.09	277.27	277.24	277.25	277.26	276.69	276.44	276.69	276.80	276.83	276.59	276.36	276.52	276.56	276.56	275.77	275.25	275.19	274.98	274.96	275.25	274.61	275.51	276.08	276.09	276.17	275.87	276.18	276.06	276.07	275.52	274.90	274.96	275.50	275.53	276.93	277.04	276.50	277.01	277.02	276.28	276.13	275.86	276.23	276.24	275.90	275.62	275.63	275.76	275.79
276.67	276.34	276.29	276.26	276.24	277.37	277.60	277.27	277.33	277.35	276.51	276.03	276.50	276.49	276.49	276.38	275.98	276.16	275.82	275.81	277.23	277.34	277.33	277.33	277.33	276.47	276.31	276.45	276.74	276.75	275.79	275.45	275.80	276.06	276.07	276.45	276.08	276.28	275.64	275.66	276.87	277.00	276.72	277.42	277.41	277.37	277.47	276.99	276.95	276.96	277.21	277.16	276.96	277.02	277.02
276.95	276.60	276.56	276.49	276.49	276.98	277.27	276.75	277.02	277.05	276.68	276.51	276.50	276.56	276.57	277.02	276.96	277.35	277.25	277.27	277.23	277.38	277.25	276.79	276.79	276.16	275.88	275.98	275.97	275.99	275.91	275.45	275.42	275.56	275.56	276.76	276.49	276.87	276.32	276.33	276.69	276.66	276.32	276.59	276.58	276.27	275.90	276.23	276.24	276.24	275.91	275.35	275.89	275.67	275.67
276.70	276.59	276.38	276.32	276.33	275.98	275.89	275.74	276.49	276.48	276.92	276.75	276.91	277.04	277.06	277.26	277.43	277.46	277.59	277.61	276.04	275.67	275.84	275.96	275.97	275.74	275.38	275.35	275.44	275.46	277.13	277.10	276.75	276.32	276.34	276.69	276.45	276.41	275.88	275.89	277.01	276.97	276.64	276.98	276.98	275.80	275.43	276.12	276.47	276.47	277.09	276.84	276.87	277.08	277.09
276.73	276.50	276.48	276.67	276.66	277.03	277.22	277.28	277.74	277.76	277.48	277.63	277.39	277.39	277.40	276.74	276.63	276.38	276.33	276.35	276.49	276.20	276.34	276.45	276.45	276.52	276.25	276.47	276.59	276.59	276.64	276.48	276.45	276.62	276.63	277.06	277.03	276.97	276.63	276.66	277.03	276.99	276.91	276.73	276.74	276.02	275.63	276.28	276.44	276.43	277.19	277.29	276.72	276.95	276.93
276.65	276.52	276.55	276.83	276.84	276.91	277.05	276.86	276.73	276.74	275.64	275.23	275.48	276.10	276.12	276.75	276.56	276.66	276.49	276.49	276.85	276.86	277.13	276.93	276.91	276.93	276.91	276.86	277.26	277.26	276.28	275.91	276.22	276.80	276.81	277.17	277.23	277.25	276.42	276.43	276.77	276.66	276.67	277.35	277.35	277.16	277.02	276.84	276.89	276.90	276.76	276.57	276.25	276.82	276.81
276.72	276.56	276.66	276.54	276.54	277.02	277.21	276.91	277.15	277.17	276.73	276.62	276.78	276.98	277.00	276.64	276.45	276.72	276.59	276.59	276.84	276.79	276.99	276.45	276.45	277.13	277.34	277.30	277.18	277.19	276.52	276.33	276.64	276.96	276.98	276.29	275.96	276.06	275.56	275.56	277.59	277.80	277.40	277.75	277.75	276.99	276.94	276.60	276.93	276.91	277.01	276.90	276.97	276.77	276.77
276.28	275.88	276.07	275.89	275.91	276.46	276.41	276.05	276.71	276.71	276.97	276.92	276.76	276.81	276.79	277.32	277.55	277.68	277.71	277.70	276.95	276.93	276.74	276.53	276.53	276.41	276.03	276.20	276.17	276.18	277.90	278.27	278.27	278.07	278.09	277.36	277.43	277.21	276.61	276.59	277.39	277.64	277.28	277.12	277.14	276.84	276.91	276.64	276.77	276.80	276.65	276.41	276.37	276.59	276.59
276.76	276.44	276.54	276.41	276.41	276.50	276.29	276.29	276.36	276.36	277.69	277.81	277.56	276.99	277.00	277.47	277.71	277.57	277.35	277.35	276.16	275.70	276.13	276.03	276.03	275.87	275.46	275.70	275.87	275.87	277.52	277.88	277.40	277.09	277.10	277.53	277.66	277.67	276.81	276.82	277.20	277.40	277.01	277.34	277.32	276.43	276.32	276.05	276.68	276.70	277.04	276.95	277.18	277.03	277.03
276.42	276.14	276.11	276.31	276.32	277.65	278.05	277.90	277.86	277.87	277.06	277.03	277.26	277.26	277.28	276.80	276.83	276.80	276.74	276.77	276.25	275.99	276.14	276.06	276.05	277.20	277.13	277.31	277.38	277.38	276.56	276.45	276.44	276.31	276.33	276.95	276.76	276.73	276.03	276.03	276.00	275.68	276.17	275.94	275.94	276.67	276.60	276.52	276.47	276.47	276.69	276.57	276.07	276.14	276.14
277.20	277.09	277.34	277.05	277.04	276.42	276.33	276.26	276.53	276.55	278.09	278.49	278.26	277.66	277.67	276.41	276.23	276.46	276.40	276.40	276.71	276.53	276.56	276.55	276.55	277.42	277.55	277.69	277.58	277.58	276.37	276.07	276.36	276.64	276.64	277.54	277.69	277.63	276.82	276.84	275.63	275.28	275.82	275.95	275.95	276.94	276.86	276.48	276.50	276.50	277.33	277.36	276.95	277.41	277.43
276.42	276.26	276.44	276.49	276.51	276.36	276.31	276.51	276.69	276.70	276.62	276.41	276.39	276.30	276.29	277.29	277.52	277.29	276.98	276.98	277.44	277.56	277.33	276.75	276.76	277.78	278.13	277.95	277.53	277.54	276.93	276.97	276.87	276.30	276.33	277.33	277.57	277.34	276.27	276.26	275.56	274.98	275.38	275.66	275.68	277.22	277.24	277.02	277.07	277.06	276.34	276.15	276.57	276.83	276.82
276.78	276.69	277.11	276.78	276.80	276.22	276.00	276.28	276.38	276.38	277.96	278.30	278.38	278.28	278.31	277.20	277.34	277.38	277.28	277.27	276.76	276.72	276.51	276.16	276.18	276.80	276.68	277.09	276.95	276.99	276.86	276.84	276.76	276.85	276.87	277.99	278.30	278.18	277.14	277.14	276.22	276.02	276.30	276.28	276.29	276.99	276.93	276.66	276.47	276.49	277.63	278.00	277.24	277.69	277.68
277.50	277.52	277.40	277.28	277.28	275.78	275.58	275.47	276.23	276.23	277.17	277.33	276.95	276.70	276.70	277.67	277.98	277.81	277.47	277.48	276.98	276.85	276.82	276.74	276.75	277.68	277.90	277.67	277.19	277.20	276.63	276.55	276.69	276.71	276.70	276.73	276.80	276.65	275.93	275.93	276.96	276.97	277.40	277.48	277.49	276.53	276.40	276.02	276.48	276.48	277.33	277.43	277.26	276.92	276.92
276.77	276.61	276.50	276.81	276.82	276.26	276.08	276.01	276.21	276.21	277.98	278.23	277.97	277.85	277.87	276.33	276.06	276.20	276.35	276.35	276.69	276.56	276.84	276.74	276.76	277.24	277.29	277.26	277.18	277.19	277.88	278.32	277.89	277.43	277.44	277.00	276.94	276.99	276.79	276.81	277.27	277.38	277.21	277.24	277.25	277.36	277.43	276.86	277.03	277.01	277.31	277.32	277.46	277.08	277.09
277.28	277.34	277.53	277.47	277.48	276.67	276.67	276.56	276.95	276.95	277.55	277.65	277.50	277.24	277.26	276.46	276.36	276.37	276.49	276.50	277.61	277.85	277.88	277.48	277.45	277.27	277.33	277.12	277.10	277.10	276.50	276.38	276.43	276.38	276.41	277.26	277.52	277.25	276.44	276.45	276.01	275.78	276.09	276.01	276.00	276.94	276.91	277.10	276.41	276.42	277.02	277.14	276.64	276.52	276.51
277.04	277.13	276.99	276.76	276.77	277.12	277.19	277.33	277.52	277.52	276.93	276.91	276.82	276.84	276.87	277.05	277.12	277.18	277.04	277.05	277.09	277.03	276.87	276.45	276.46	277.87	278.30	277.95	277.87	277.87	275.38	274.92	275.12	275.40	275.41	277.10	277.00	277.41	276.67	276.70	277.56	277.83	277.71	277.94	277.95	277.37	277.47	277.26	276.94	276.95	277.12	277.09	277.02	276.36	276.35
277.51	277.50	277.28	277.12	277.12	276.56	276.55	276.61	276.82	276.83	276.19	275.98	275.90	276.06	276.08	276.96	277.02	276.95	277.13	277.15	277.03	276.97	277.06	276.65	276.68	276.48	276.36	276.04	275.83	275.83	277.45	277.59	277.89	277.70	277.70	277.87	278.20	278.15	276.87	276.86	277.69	277.98	277.83	277.76	277.77	277.84	278.07	277.50	277.67	277.66	277.45	277.74	277.31	277.24	277.23
277.66	277.85	277.53	277.43	277.43	276.52	276.27	276.61	277.11	277.13	277.02	276.96	276.85	276.99	276.98	276.61	276.48	276.69	276.74	276.74	277.18	277.14	277.10	276.53	276.55	276.89	276.85	277.15	277.26	277.27	277.56	277.72	277.47	276.75	276.76	277.90	278.12	277.97	276.95	276.96	276.63	276.74	276.70	276.99	277.00	277.49	277.53	277.18	277.31	277.30	277.72	278.07	277.79	277.45	277.46
277.91	278.05	277.86	277.86	277.88	277.30	277.60	277.44	277.56	277.58	276.74	276.53	276.52	276.38	276.41	277.66	278.00	277.73	277.49	277.51	277.04	277.07	276.99	276.36	276.37	278.06	278.53	278.51	277.73	277.75	276.68	276.63	276.80	276.85	276.86	276.55	276.25	276.43	276.14	276.13	277.70	277.91	276.93	277.61	277.60	277.20	277.27	277.37	277.49	277.50	277.35	277.59	277.22	276.96	276.96
277.96	278.10	277.62	277.67	277.65	276.55	276.60	276.75	277.11	277.11	277.09	277.20	276.97	276.97	276.98	278.39	278.90	278.71	278.14	278.17	276.99	277.06	276.97	276.87	276.87	275.72	275.53	275.52	276.05	276.06	277.47	277.66	277.82	277.93	277.94	277.74	277.94	277.92	277.15	277.15	277.44	277.58	277.36	277.31	277.32	277.34	277.36	277.21	277.31	277.30	276.36	276.14	276.19	276.08	276.08
278.22	278.53	278.51	278.07	278.07	277.13	277.24	277.39	277.28	277.28	276.82	276.98	276.87	276.83	276.84	276.66	276.61	276.40	276.15	276.17	277.55	277.79	277.45	276.57	276.55	277.68	277.86	278.02	277.58	277.59	277.82	278.14	278.08	277.59	277.60	276.69	276.70	276.97	276.05	276.04	276.76	276.81	276.80	276.71	276.71	277.42	277.44	277.32	276.92	276.91	277.50	277.68	277.18	277.06	277.05
277.56	277.60	277.44	277.19	277.19	277.45	277.69	277.68	277.55	277.56	276.47	276.31	276.17	276.12	276.13	277.03	277.06	276.90	276.38	276.38	277.53	277.67	277.60	276.96	276.97	277.46	277.75	277.66	277.11	277.12	278.12	278.51	278.39	278.05	278.05	277.90	278.32	278.35	276.95	276.94	276.15	276.11	276.00	276.55	276.54	277.18	277.24	277.05	277.22	277.23	276.90	276.84	276.96	276.73	276.73
277.80	278.03	277.72	277.94	277.95	277.79	278.15	278.17	278.40	278.41	277.32	277.25	277.30	277.34	277.36	277.27	277.18	277.64	277.15	277.15	277.17	277.25	277.25	277.05	277.05	277.05	277.00	277.13	276.88	276.87	277.13	277.36	277.31	276.97	276.96	276.68	276.75	277.10	276.99	277.00	277.11	277.23	276.99	277.40	277.41	277.24	277.22	276.91	277.04	277.05	277.51	277.82	277.38	277.34	277.35
277.30	277.41	277.47	277.32	277.33	276.73	276.76	277.30	277.80	277.80	277.94	278.35	278.03	277.55	277.56	277.89	278.13	277.85	277.35	277.36	278.15	278.63	278.68	278.00	278.01	277.52	277.73	277.49	277.52	277.54	276.69	276.81	276.69	276.76	276.76	276.43	276.17	276.42	275.97	275.97	277.55	277.88	277.64	277.27	277.29	277.73	278.01	277.70	277.83	277.82	276.99	276.91	277.04	277.07	277.07
277.15	277.12	277.38	277.18	277.20	277.16	277.32	277.46	277.70	277.72	277.52	277.78	277.65	277.20	277.21	277.50	277.97	277.91	277.38	277.40	277.78	278.26	277.99	277.09	277.09	276.87	276.96	276.55	276.63	276.62	276.65	276.67	277.05	276.81	276.81	277.09	277.01	277.22	275.95	275.95	277.26	277.55	276.73	277.14	277.14	276.70	276.69	276.73	276.91	276.92	276.75	276.69	276.71	276.52	276.52
277.54	277.72	277.58	277.23	277.23	277.50	277.67	277.71	277.66	277.67	277.91	278.25	277.99	277.99	277.99	276.50	276.38	276.46	276.47	276.47	277.08	277.26	277.35	277.08	277.07	276.91	276.82	276.76	276.71	276.69	276.68	276.54	276.73	276.43	276.44	277.41	277.37	277.48	276.83	276.82	276.87	276.86	276.81	276.70	276.70	278.17	278.56	278.21	277.86	277.86	277.59	277.69	277.65	276.98	276.97
277.80	278.08	277.88	277.70	277.73	276.63	276.48	276.77	277.12	277.12	276.25	276.21	275.89	275.86	275.85	276.96	276.88	276.90	276.87	276.87	277.49	277.59	277.62	277.25	277.26	276.27	276.10	276.28	276.60	276.60	276.41	276.03	276.15	276.23	276.23	277.06	276.96	276.81	276.29	276.28	276.48	276.42	276.41	276.47	276.46	277.04	277.14	277.52	276.56	276.55	276.81	276.77	276.87	276.69	276.68
277.05	277.09	276.81	276.63	276.62	276.61	276.84	276.88	277.31	277.33	277.05	277.05	277.18	277.08	277.10	277.06	277.01	277.56	277.55	277.57	277.32	277.40	277.24	276.77	276.78	277.31	277.48	277.26	277.04	277.04	276.75	276.79	276.72	276.68	276.69	277.12	277.17	276.85	275.97	275.98	276.49	276.47	276.61	276.92	276.91	277.35	277.44	277.25	277.27	277.29	277.71	278.01	277.82	277.78	277.77
277.61	277.71	277.69	277.60	277.62	277.25	277.50	277.74	277.74	277.76	277.78	278.16	278.07	277.77	277.76	277.36	277.62	277.61	277.52	277.52	277.14	277.21	277.24	276.82	276.84	277.23	277.38	277.21	276.69	276.69	277.60	277.83	277.81	277.59	277.60	276.88	276.79	276.91	276.20	276.22	278.25	278.89	278.41	278.34	278.33	276.94	277.05	276.57	276.58	276.59	276.96	276.89	276.97	276.51	276.51
276.84	276.76	276.86	276.71	276.71	276.83	276.77	277.06	276.89	276.88	276.49	276.32	276.22	276.11	276.09	277.75	278.04	277.86	277.90	277.93	277.76	278.08	278.00	276.99	277.00	277.33	277.50	277.30	276.90	276.90	277.11	277.36	277.26	277.29	277.29	277.50	277.72	277.71	276.45	276.46	278.24	278.74	277.81	278.06	278.08	277.84	278.10	277.99	278.07	278.06	277.86	278.22	277.52	277.40	277.40
276.74	276.65	276.67	276.44	276.45	277.46	277.88	277.67	277.69	277.70	276.88	276.95	276.66	276.92	276.91	277.71	278.09	277.97	277.06	277.08	276.78	276.79	276.81	276.39	276.40	275.98	275.51	276.11	276.40	276.39	276.51	276.56	276.56	276.33	276.35	277.11	277.23	276.91	276.63	276.63	279.01	279.51	278.83	278.58	278.59	277.43	277.75	277.59	277.04	277.05	276.74	276.81	276.93	276.64	276.65
276.93	276.96	276.97	276.90	276.91	276.76	276.72	276.69	276.76	276.76	276.95	277.04	277.20	277.00	277.02	277.14	277.24	277.28	277.68	277.71	276.70	276.60	276.71	276.37	276.37	277.20	277.29	277.30	277.31	277.31	277.54	277.93	277.85	277.94	277.97	277.28	277.50	277.04	276.22	276.24	278.32	278.86	278.13	278.17	278.16	277.44	277.68	277.18	277.40	277.41	277.69	278.00	278.02	277.81	277.81
276.68	276.50	276.62	277.06	277.07	277.13	277.22	277.28	277.62	277.64	277.95	278.20	278.38	278.30	278.31	277.72	278.06	277.91	277.52	277.53	276.43	276.26	276.31	276.01	275.99	276.73	276.60	276.65	276.52	276.54	277.33	277.55	277.37	277.27	277.26	277.83	278.19	277.98	276.62	276.65	278.60	279.25	278.84	278.69	278.70	277.95	278.31	277.93	277.68	277.68	278.18	278.64	278.30	277.87	277.89
276.51	276.13	276.71	276.97	276.97	277.30	277.55	277.66	277.70	277.72	278.22	278.54	278.32	277.77	277.80	277.42	277.70	277.74	277.44	277.48	277.12	277.12	277.26	276.74	276.74	277.31	277.20	277.46	277.52	277.53	277.00	277.21	276.95	277.06	277.07	278.23	278.63	278.53	277.21	277.21	277.95	278.44	278.12	278.23	278.23	276.95	276.91	277.20	276.91	276.92	278.37	278.83	278.02	277.65	277.66
276.90	276.95	276.81	276.74	276.72	276.62	276.59	276.69	277.28	277.28	277.67	277.96	277.96	277.40	277.40	277.50	277.76	277.46	276.97	276.99	276.91	276.93	277.01	276.86	276.86	276.96	277.17	277.17	276.68	276.68	277.51	277.92	277.55	277.18	277.18	277.22	277.25	277.48	277.50	277.53	277.98	278.51	278.08	277.76	277.76	277.65	277.92	277.46	277.63	277.61	277.58	277.86	277.37	277.15	277.15
276.96	276.87	277.10	277.14	277.14	278.54	279.20	279.41	278.99	279.02	277.91	278.10	278.23	277.77	277.76	277.78	278.03	277.84	277.41	277.43	276.80	276.79	276.94	276.46	276.47	276.92	277.07	276.87	276.68	276.69	276.86	276.93	276.79	276.66	276.67	276.95	276.95	276.83	276.55	276.55	277.47	277.75	277.42	277.42	277.40	277.61	277.83	277.80	277.76	277.75	278.36	278.85	278.24	278.01	278.02
277.21	277.17	277.46	277.15	277.14	277.47	277.90	277.87	277.39	277.38	276.91	276.65	276.77	276.58	276.57	277.20	277.46	277.11	276.99	277.00	277.53	277.57	277.63	276.92	276.93	276.93	276.84	276.90	276.99	277.01	277.95	278.25	278.36	278.28	278.32	276.81	276.92	276.68	276.06	276.06	277.66	278.11	277.48	277.67	277.67	277.47	277.69	277.52	277.10	277.10	278.25	278.57	278.37	277.97	277.98
277.44	277.40	277.44	277.14	277.15	276.77	276.99	277.12	277.43	277.44	277.29	277.34	277.48	277.46	277.47	276.31	276.08	276.42	276.29	276.30	277.50	277.61	277.62	277.09	277.08	276.76	276.92	276.72	276.80	276.80	277.71	278.14	278.01	277.60	277.60	277.74	278.05	277.67	276.05	276.05	278.54	279.15	278.47	278.52	278.53	278.09	278.49	278.13	278.05	278.04	278.11	278.50	277.93	277.66	277.66
277.21	277.22	276.88	276.61	276.60	277.35	277.71	277.58	277.46	277.47	277.52	277.84	277.86	278.03	278.04	277.04	277.13	277.21	277.13	277.13	277.88	278.20	278.25	277.57	277.57	275.57	275.15	275.57	275.94	275.93	277.59	277.91	277.76	277.18	277.19	276.51	276.20	276.44	276.93	276.93	277.72	278.13	277.85	277.91	277.92	277.98	278.37	278.07	277.66	277.66	277.55	277.85	277.69	277.37	277.38
277.62	277.72	277.35	277.32	277.32	277.44	277.71	277.74	277.60	277.61	277.56	277.88	277.67	277.65	277.66	277.50	277.75	277.61	277.22	277.22	278.02	278.26	278.57	277.87	277.87	277.24	277.27	277.18	276.72	276.71	277.30	277.64	277.39	277.33	277.34	277.59	277.68	277.76	275.99	275.98	278.99	279.52	279.17	278.64	278.67	278.16	278.66	278.30	277.58	277.59	277.78	278.08	277.93	277.63	277.62
278.02	278.19	278.11	277.63	277.63	277.36	277.62	277.86	278.01	278.03	278.56	279.02	278.81	278.13	278.15	276.67	276.65	276.90	276.87	276.88	278.25	278.68	278.49	277.58	277.61	277.27	277.50	277.64	277.37	277.36	277.46	277.82	277.82	277.51	277.49	278.13	278.48	278.08	276.95	276.95	278.53	279.12	278.75	278.28	278.28	277.25	277.44	277.09	277.17	277.15	278.24	278.72	278.48	277.92	277.93
277.55	277.71	277.79	277.16	277.17	276.81	276.88	277.04	277.27	277.26	277.31	277.34	277.27	277.08	277.09	277.87	278.23	278.24	278.18	278.18	277.08	277.25	277.27	277.14	277.15	278.43	279.00	278.73	278.22	278.23	277.99	278.53	278.51	278.32	278.33	277.53	277.77	277.71	277.05	277.06	277.65	278.18	277.60	277.57	277.57	277.03	277.20	277.26	277.20	277.21	278.17	278.69	278.61	277.76	277.75
277.97	278.07	277.94	277.79	277.80	277.00	277.12	277.03	277.12	277.12	277.02	277.01	277.21	277.32	277.31	277.45	277.79	277.41	276.99	276.98	277.32	277.51	277.42	276.92	276.92	278.33	278.91	278.67	278.16	278.19	277.41	277.63	277.67	277.39	277.42	277.92	278.27	278.17	276.97	276.97	278.20	278.79	278.63	278.56	278.56	277.82	278.23	278.27	277.83	277.82	277.01	277.26	277.20	276.82	276.81
277.73	277.96	277.98	277.79	277.79	277.02	277.19	277.40	277.62	277.61	278.08	278.43	278.39	278.39	278.39	278.08	278.44	278.19	277.33	277.35	277.88	278.13	277.90	277.48	277.50	277.66	278.01	277.86	277.41	277.42	277.86	278.16	277.74	277.05	277.05	277.85	278.21	277.93	277.21	277.22	278.23	278.73	278.12	277.82	277.81	278.30	278.66	278.23	277.86	277.87	278.61	279.17	278.83	278.63	278.63
277.96	278.20	277.91	277.59	277.58	278.23	278.76	278.76	278.51	278.51	278.49	279.08	278.76	278.10	278.12	278.68	279.29	279.36	278.86	278.86	276.59	276.60	276.52	276.38	276.36	277.31	277.56	277.34	277.00	277.02	277.45	277.81	277.57	277.32	277.34	277.90	278.35	278.06	276.97	276.98	277.80	278.09	277.64	277.58	277.59	277.22	277.55	277.52	277.76	277.77	277.13	277.41	277.66	277.00	277.00
277.52	277.70	277.70	277.63	277.63	278.78	279.39	279.54	279.19	279.23	278.02	278.30	278.10	277.43	277.45	278.27	278.75	278.32	277.47	277.46	277.07	277.11	277.18	277.03	277.05	277.62	277.98	277.96	277.53	277.56	278.56	279.13	279.01	278.42	278.42	277.68	277.83	278.11	276.65	276.63	277.79	278.19	277.89	277.98	277.97	278.86	279.51	278.66	277.94	277.94	277.43	277.59	277.72	277.18	277.17
277.42	277.52	277.35	277.35	277.37	277.91	278.37	278.21	278.25	278.27	277.85	278.31	278.08	277.92	277.93	277.64	278.02	277.86	277.40	277.43	278.01	278.59	278.34	277.39	277.38	277.40	277.58	277.70	277.43	277.44	278.14	278.53	278.61	277.96	277.98	277.82	278.23	277.74	277.18	277.18	277.69	278.10	277.85	277.52	277.51	278.38	278.91	278.53	277.91	277.90	277.85	278.22	278.02	277.73	277.71
276.95	276.85	276.98	277.12	277.10	277.22	277.53	277.62	277.75	277.78	277.49	277.61	277.59	277.25	277.25	278.42	278.82	278.68	278.33	278.35	278.93	279.63	279.33	278.41	278.43	277.04	277.04	277.09	276.74	276.75	278.44	279.09	278.91	278.31	278.31	277.42	277.72	277.67	276.65	276.66	278.20	278.75	278.31	277.99	278.00	277.66	278.15	278.14	277.94	277.93	277.56	277.89	277.85	277.16	277.15
277.46	277.40	277.45	277.80	277.81	277.03	277.29	277.16	277.45	277.45	277.01	277.25	277.19	277.01	277.03	277.66	278.20	277.63	277.28	277.30	276.52	276.49	276.25	276.01	276.01	277.21	277.39	277.64	277.30	277.31	277.69	278.28	278.23	278.06	278.09	277.96	278.29	278.28	276.76	276.77	277.89	278.37	277.80	277.78	277.80	278.67	279.31	278.88	278.67	278.69	276.71	276.77	276.93	276.58	276.58
277.45	277.39	277.50	277.37	277.37	277.47	277.92	277.80	278.11	278.13	277.06	277.24	277.31	277.25	277.25	278.09	278.54	278.23	277.96	277.97	277.59	277.97	277.78	277.12	277.12	278.15	278.60	278.48	277.65	277.66	278.03	278.32	278.09	277.57	277.55	277.57	277.77	277.79	277.28	277.29	277.25	277.61	277.72	277.49	277.50	277.08	277.34	277.38	277.81	277.83	278.42	278.93	278.55	277.89	277.89
277.45	277.67	277.67	277.05	277.05	278.10	278.56	278.54	278.27	278.28	277.81	278.13	278.01	277.57	277.57	277.82	278.23	278.17	277.57	277.60	278.66	279.20	279.13	278.46	278.50	277.26	277.48	277.51	277.37	277.36	277.53	277.91	277.73	277.45	277.47	277.42	277.61	277.37	276.61	276.59	278.80	279.32	278.97	279.24	279.26	277.94	278.32	278.00	277.89	277.90	278.04	278.51	278.16	278.27	278.29
277.75	278.03	277.86	277.37	277.37	277.31	277.64	277.57	277.71	277.73	277.00	277.05	277.06	276.88	276.88	277.86	278.34	278.26	277.67	277.68	278.04	278.37	278.49	277.51	277.52	277.82	278.12	278.08	277.93	277.94	276.73	276.67	276.84	276.50	276.50	277.14	277.28	277.27	276.55	276.56	278.47	279.04	278.69	279.11	279.12	277.72	278.03	277.69	277.72	277.71	278.93	279.45	278.95	278.92	278.93
277.38	277.54	277.44	277.41	277.42	277.87	278.22	278.14	278.00	278.00	277.18	277.30	277.58	277.15	277.17	277.73	277.95	277.75	277.41	277.43	277.74	278.05	278.06	277.44	277.42	277.49	277.75	277.67	277.47	277.46	278.23	278.76	278.74	278.05	278.06	277.07	277.08	277.07	276.57	276.58	278.51	279.04	278.79	278.76	278.77	278.87	279.56	279.44	278.84	278.86	278.14	278.52	278.29	278.00	278.00
277.76	277.89	277.82	277.81	277.82	277.50	277.94	277.76	277.25	277.26	277.94	278.32	278.26	277.63	277.63	278.17	278.76	278.57	278.12	278.14	278.51	279.05	279.06	278.13	278.14	277.37	277.48	277.16	276.66	276.67	277.49	277.94	277.90	277.71	277.72	277.68	278.00	277.89	276.41	276.40	277.88	278.28	277.96	277.60	277.62	278.58	279.08	278.45	278.20	278.19	278.42	279.03	278.83	278.38	278.38
278.26	278.73	278.72	278.56	278.57	277.97	278.51	278.10	278.04	278.06	276.73	276.72	276.85	277.00	277.02	277.45	277.74	277.45	277.03	277.05	277.94	278.34	278.22	277.21	277.21	277.89	278.21	278.31	278.14	278.16	278.13	278.69	278.36	277.88	277.88	277.35	277.59	277.40	276.66	276.66	278.11	278.68	278.31	278.09	278.09	278.28	278.73	278.10	277.97	277.95	279.05	279.66	278.83	278.42	278.44
277.73	277.88	278.33	278.41	278.43	278.00	278.61	278.36	277.79	277.80	277.19	277.20	277.53	277.64	277.64	278.29	278.76	278.80	277.90	277.89	277.69	277.99	277.88	276.68	276.71	278.57	279.14	278.92	278.02	278.05	277.43	277.69	277.52	277.41	277.41	277.73	278.07	278.04	276.60	276.60	278.64	279.15	278.47	278.66	278.65	277.52	277.91	278.18	277.48	277.49	278.54	278.98	278.59	278.26	278.27
277.50	277.49	277.79	277.55	277.54	278.29	278.99	278.87	278.80	278.82	278.60	279.12	279.17	278.53	278.54	277.56	277.96	277.91	277.33	277.34	278.12	278.48	278.39	277.94	277.97	277.21	277.42	277.55	276.72	276.73	278.29	278.63	278.89	278.63	278.64	277.75	278.14	278.13	277.26	277.27	278.68	279.31	278.78	279.16	279.18	278.06	278.43	278.47	277.81	277.81	278.87	279.67	279.09	278.66	278.67
277.38	277.38	277.97	277.38	277.38	277.76	278.25	278.02	278.19	278.22	278.30	278.69	278.67	278.34	278.35	277.76	278.15	278.05	277.43	277.44	277.71	278.01	278.09	277.26	277.26	277.39	277.68	277.85	278.03	278.04	277.73	278.30	278.33	277.97	277.98	277.33	277.57	277.38	276.95	276.95	278.33	278.85	278.20	278.17	278.17	279.05	279.64	278.64	278.61	278.61	278.69	279.30	279.34	278.47	278.49
277.13	277.30	277.76	277.78	277.79	277.35	277.69	277.73	277.75	277.77	277.27	277.51	277.57	277.00	276.99	278.33	278.81	278.85	278.46	278.48	277.37	277.73	277.52	276.73	276.73	277.83	278.22	278.07	277.40	277.42	278.38	278.97	278.72	277.79	277.80	277.76	278.17	278.12	276.51	276.50	277.98	278.43	277.95	278.33	278.32	278.31	278.88	278.78	278.10	278.12	279.15	279.78	278.79	278.97	278.97
276.99	276.96	277.49	277.32	277.31	277.54	278.00	278.02	278.19	278.19	277.51	277.66	277.74	277.44	277.45	278.47	278.91	278.84	278.13	278.15	277.34	277.58	277.98	277.26	277.25	277.71	277.97	277.93	277.43	277.44	277.90	278.48	278.34	277.90	277.90	278.29	278.88	278.73	277.48	277.46	278.23	278.80	278.23	278.57	278.57	279.73	280.65	279.82	279.48	279.49	278.98	279.65	279.32	278.53	278.53
277.28	277.41	277.51	277.20	277.19	278.43	278.95	279.08	278.65	278.66	278.44	278.92	278.99	278.56	278.59	278.02	278.33	278.34	277.97	278.01	278.41	278.87	279.15	277.94	277.94	277.85	278.12	278.28	277.67	277.67	278.68	279.39	279.02	278.48	278.49	278.02	278.37	278.51	277.62	277.60	278.98	279.70	279.36	279.25	279.26	278.56	279.01	278.59	277.79	277.80	278.39	279.10	278.58	277.62	277.63
277.33	277.39	277.64	277.13	277.13	278.42	279.22	278.81	278.16	278.16	277.70	277.96	278.10	277.45	277.47	277.41	277.58	277.84	277.73	277.74	277.86	278.16	278.06	277.11	277.11	277.68	278.07	277.95	277.73	277.74	278.28	278.80	278.55	278.65	278.65	278.67	279.07	278.84	277.26	277.28	278.91	279.47	279.31	278.90	278.93	278.85	279.48	279.02	278.40	278.41	280.04	280.89	280.35	279.03	279.05
277.88	278.23	278.45	277.86	277.86	277.30	277.67	277.75	277.90	277.89	277.29	277.47	277.29	277.13	277.12	277.38	277.59	277.78	277.14	277.14	278.42	278.90	279.15	278.37	278.39	277.78	278.23	278.21	277.50	277.50	278.91	279.66	279.29	278.55	278.56	278.06	278.48	278.48	277.63	277.65	279.13	279.98	279.35	279.22	279.22	278.60	279.27	278.76	278.45	278.48	278.00	278.51	278.39	277.48	277.50
278.01	278.44	278.51	278.51	278.53	278.14	278.71	278.71	278.40	278.40	277.85	278.36	278.18	277.84	277.83	277.64	277.95	277.98	277.90	277.92	278.03	278.50	278.56	277.72	277.71	278.21	278.84	279.04	278.16	278.18	277.87	278.36	278.21	277.93	277.94	277.98	278.47	278.04	277.25	277.25	279.28	280.06	279.29	279.49	279.51	277.87	278.29	278.14	277.34	277.35	278.54	279.11	278.79	278.66	278.65
278.03	278.35	278.50	277.88	277.88	278.19	278.83	278.78	278.56	278.57	278.58	279.23	279.03	278.27	278.29	277.90	278.28	278.38	278.21	278.23	278.39	278.79	278.77	277.93	277.94	278.47	279.09	279.00	278.15	278.18	278.30	278.94	278.91	279.02	279.03	279.00	279.75	279.49	276.85	276.85	279.17	279.90	279.45	279.02	279.00	279.06	279.70	279.24	279.20	279.21	279.40	280.08	280.04	279.47	279.47
278.38	278.63	278.64	278.52	278.54	278.97	279.62	279.48	279.20	279.22	277.58	277.84	277.84	277.63	277.65	278.08	278.62	278.35	277.99	278.02	279.00	279.69	279.61	278.80	278.81	277.62	277.99	277.92	277.65	277.64	278.53	278.93	279.04	278.50	278.52	278.80	279.35	279.00	277.69	277.69	279.56	280.29	279.70	279.69	279.70	278.99	279.62	279.17	279.26	279.25	278.63	279.51	278.85	278.87	278.87
277.60	277.78	277.85	277.43	277.42	277.86	278.66	278.61	277.86	277.86	278.09	278.46	278.56	278.35	278.36	277.49	277.66	277.69	276.84	276.83	277.80	278.13	278.20	277.32	277.34	277.75	278.15	278.16	277.73	277.73	278.89	279.72	279.46	279.10	279.11	278.69	279.12	279.11	277.32	277.32	278.48	279.06	278.94	278.71	278.71	278.94	279.64	279.00	278.88	278.91	278.68	279.40	279.06	278.20	278.21
278.82	279.41	279.72	279.53	279.56	277.86	278.37	278.30	277.86	277.86	277.93	278.45	278.34	278.03	278.04	277.86	278.24	278.39	277.90	277.89	278.15	278.74	278.55	277.50	277.52	278.33	278.74	278.42	277.70	277.72	278.95	279.77	279.54	278.67	278.69	279.01	279.65	279.72	277.54	277.56	278.96	279.60	279.15	279.03	279.03	278.09	278.56	278.30	277.68	277.69	278.77	279.57	278.74	278.45	278.47
278.38	278.87	278.91	278.34	278.33	277.71	278.17	278.36	278.39	278.40	278.68	279.14	279.18	278.65	278.68	277.95	278.38	278.48	277.76	277.76	278.65	279.17	279.08	278.20	278.21	278.22	278.64	278.66	277.95	277.96	278.36	278.94	278.84	278.29	278.28	278.18	278.82	278.54	278.18	278.18	280.08	280.86	280.09	280.27	280.27	279.23	279.88	279.27	279.23	279.24	279.35	280.17	279.63	278.60	278.63
278.39	278.80	278.67	278.04	278.03	278.23	278.79	278.88	278.51	278.52	277.96	278.32	278.36	277.86	277.89	278.52	279.09	279.14	278.44	278.46	277.33	277.56	277.84	277.57	277.58	277.61	277.90	278.00	277.17	277.16	278.62	279.44	279.02	278.18	278.20	279.34	280.05	279.93	277.31	277.33	279.39	280.08	279.59	279.37	279.39	279.84	280.65	280.29	279.33	279.33	279.35	280.10	279.72	279.10	279.10
278.39	278.80	278.53	278.06	278.05	277.23	277.51	277.76	277.61	277.63	278.58	279.14	279.00	278.58	278.59	278.22	278.70	278.94	278.16	278.19	277.95	278.38	278.32	277.48	277.47	278.74	279.29	279.42	278.57	278.61	278.61	279.30	279.02	278.41	278.42	278.78	279.39	279.35	278.18	278.19	279.03	279.70	279.60	279.25	279.27	279.11	279.83	279.61	278.38	278.39	279.62	280.34	279.73	279.04	279.07
278.38	279.00	278.65	278.23	278.24	277.99	278.61	278.79	278.48	278.48	278.46	279.05	278.87	278.45	278.47	277.98	278.41	278.40	277.86	277.87	279.37	280.05	280.12	278.78	278.80	278.15	278.67	278.69	278.18	278.18	277.62	278.02	278.07	277.27	277.26	277.87	278.29	278.13	278.12	278.11	279.55	280.44	280.24	280.26	280.30	279.26	279.80	279.24	278.87	278.86	279.27	280.13	280.13	279.29	279.28
278.71	279.22	279.19	278.73	278.75	278.94	279.81	279.55	278.89	278.91	278.16	278.54	278.47	277.93	277.94	277.83	278.24	278.58	278.37	278.37	278.90	279.44	279.22	278.01	278.02	278.82	279.37	279.06	278.28	278.32	277.64	278.01	278.08	277.30	277.30	278.19	278.79	278.76	276.70	276.70	280.22	280.96	280.93	280.46	280.47	279.31	279.96	279.73	278.87	278.86	278.87	279.45	278.89	278.37	278.38
278.21	278.57	278.48	278.02	278.00	279.03	279.78	279.64	279.02	279.03	278.42	278.95	278.86	278.41	278.43	278.91	279.53	279.48	278.40	278.41	278.48	279.04	279.12	278.29	278.31	278.36	278.84	278.72	278.10	278.10	278.08	278.55	278.43	277.65	277.65	278.33	278.82	278.52	277.58	277.59	279.80	280.68	280.40	280.10	280.10	278.33	279.04	278.63	278.33	278.33	279.82	280.50	280.21	279.92	279.93
278.61	278.93	279.10	279.06	279.07	277.81	278.39	278.42	278.20	278.21	278.07	278.47	278.62	278.33	278.33	278.01	278.43	278.59	277.86	277.87	278.96	279.68	279.99	278.78	278.77	278.21	278.85	279.01	278.62	278.63	278.21	278.88	278.77	278.19	278.20	277.75	278.03	277.80	277.55	277.55	279.89	280.73	280.05	280.02	280.01	279.03	279.61	279.41	278.95	278.95	280.26	281.06	280.68	279.53	279.55
278.26	278.85	278.59	278.32	278.34	277.43	277.97	277.88	277.58	277.61	277.96	278.51	278.60	277.99	277.99	278.72	279.36	279.58	279.33	279.35	278.25	278.81	278.58	277.77	277.77	279.43	280.11	280.17	279.71	279.74	279.04	279.66	279.59	279.10	279.14	278.56	279.23	278.98	277.17	277.18	279.55	280.17	279.91	279.04	279.04	278.64	279.16	279.07	278.54	278.54	277.93	278.48	278.48	277.95	277.93
277.93	278.17	278.28	278.22	278.22	277.80	278.13	278.67	278.32	278.34	278.05	278.39	278.30	277.64	277.67	278.45	278.88	279.12	278.78	278.82	278.29	278.71	278.88	278.04	278.04	278.51	279.20	279.15	278.65	278.66	278.09	278.58	278.66	278.03	278.03	278.32	278.96	278.79	277.62	277.62	279.76	280.58	279.74	279.38	279.39	278.30	278.82	278.90	277.99	277.96	278.40	278.86	279.13	278.39	278.39
277.17	277.15	277.63	277.08	277.09	278.46	279.05	279.39	279.18	279.19	278.00	278.37	278.39	278.04	278.04	277.53	278.03	278.37	278.02	278.03	279.21	279.75	280.03	279.05	279.09	279.05	279.79	279.56	278.49	278.51	278.67	279.15	279.22	278.79	278.81	277.93	278.28	278.39	277.58	277.57	279.00	279.90	279.15	279.06	279.07	279.35	279.91	279.81	279.65	279.65	280.32	281.31	280.97	280.35	280.36
278.35	278.92	279.01	279.03	279.04	278.58	279.20	279.16	278.86	278.87	278.41	278.95	278.99	278.13	278.13	278.17	278.64	278.68	277.99	278.02	279.14	279.79	279.96	278.75	278.77	277.59	278.06	278.20	277.74	277.75	277.91	278.36	278.53	278.30	278.30	279.05	279.77	279.55	277.13	277.12	279.55	280.46	280.12	279.55	279.54	279.29	280.00	279.92	279.10	279.12	279.38	280.08	279.93	278.90	278.92
277.98	278.36	278.56	278.19	278.21	278.05	278.51	278.34	278.11	278.13	278.56	279.19	278.85	277.94	277.96	278.39	279.02	279.31	278.72	278.74	279.24	279.93	280.32	279.19	279.23	278.41	278.88	278.82	277.97	277.97	278.34	278.99	279.03	278.50	278.50	278.88	279.51	279.59	278.15	278.16	279.67	280.50	280.26	279.83	279.83	279.85	280.61	280.70	279.69	279.70	278.96	279.75	279.57	278.63	278.63
278.66	279.22	279.05	278.75	278.75	278.34	278.99	278.95	278.59	278.61	278.43	279.10	278.98	278.36	278.37	278.90	279.47	279.60	278.94	278.96	278.77	279.49	279.64	278.26	278.27	278.71	279.44	279.27	278.99	279.01	278.53	279.08	279.35	278.93	278.95	279.15	279.82	279.95	278.34	278.33	279.28	280.00	279.40	279.46	279.45	279.70	280.51	279.83	279.42	279.42	279.03	279.84	279.90	279.10	279.13
277.91	278.22	278.53	278.15	278.17	277.71	277.93	278.04	277.90	277.91	278.71	279.31	279.21	278.44	278.45	278.14	278.78	278.97	278.69	278.71	278.57	279.19	279.12	277.72	277.73	278.59	279.30	279.16	277.99	277.97	278.06	278.56	278.69	278.27	278.29	278.39	278.93	278.95	278.11	278.12	279.86	280.69	280.51	279.97	280.00	279.12	279.80	279.70	278.65	278.66	279.21	279.80	279.96	279.66	279.66
278.21	278.43	278.53	278.24	278.24	278.10	278.57	278.95	278.68	278.70	279.68	280.43	280.34	279.26	279.29	279.09	279.91	279.73	278.54	278.56	279.01	279.57	279.70	279.03	279.04	278.71	279.38	279.00	278.36	278.39	278.83	279.44	279.57	279.36	279.37	277.82	278.22	277.97	277.43	277.45	279.53	280.39	280.40	279.70	279.71	280.34	281.26	280.56	280.04	280.06	280.16	280.96	280.50	280.44	280.44
277.78	277.99	278.38	277.91	277.91	278.43	279.13	279.38	278.80	278.81	279.04	279.60	279.65	278.97	279.00	278.57	279.16	279.18	278.81	278.82	279.55	280.23	280.43	279.34	279.35	278.74	279.23	279.23	278.90	278.92	278.87	279.43	279.66	278.97	278.98	278.04	278.45	278.50	276.70	276.69	279.81	280.61	280.25	279.72	279.73	279.45	280.15	279.66	278.96	278.97	279.30	280.00	279.84	279.17	279.16
278.33	278.88	279.22	278.73	278.76	278.82	279.40	279.59	279.11	279.16	278.86	279.66	279.80	279.12	279.13	278.43	279.03	279.29	278.59	278.62	279.09	279.74	280.05	279.22	279.25	279.17	279.78	279.80	278.93	278.93	277.64	278.07	278.46	277.95	277.97	278.67	279.42	279.30	277.53	277.50	280.11	280.92	280.68	280.03	280.04	279.59	280.23	280.16	279.47	279.47	279.71	280.48	280.50	279.92	279.92
278.09	278.33	278.64	278.16	278.17	279.31	280.09	280.13	279.52	279.54	279.85	280.61	280.60	279.34	279.36	279.04	279.91	280.06	279.63	279.65	278.87	279.48	279.64	278.71	278.72	279.28	280.04	279.95	278.85	278.88	277.64	277.81	277.92	278.06	278.08	278.70	279.41	279.28	277.95	277.97	279.72	280.64	280.08	279.48	279.50	280.07	280.74	280.22	279.98	279.98	279.06	279.69	279.17	278.99	279.02
278.37	278.87	278.86	278.95	278.94	278.08	278.49	278.75	278.79	278.80	279.14	279.88	279.71	278.74	278.75	278.57	279.07	279.26	278.96	278.96	279.44	280.17	280.15	279.01	279.02	279.54	280.33	280.47	279.71	279.72	279.04	279.76	279.92	279.49	279.50	278.34	278.81	278.77	277.74	277.74	279.93	280.60	280.62	279.87	279.88	280.13	280.90	280.05	279.62	279.63	279.40	280.09	279.97	278.91	278.94
278.04	278.29	278.85	278.45	278.47	279.22	280.01	280.48	279.69	279.70	279.22	279.93	279.88	279.36	279.39	279.82	280.59	280.67	279.57	279.58	278.41	278.93	279.09	278.14	278.16	278.67	279.31	279.22	278.40	278.41	278.99	279.80	279.79	279.27	279.28	279.22	279.95	279.71	277.55	277.56	279.50	280.21	280.01	279.34	279.35	280.16	280.84	280.58	279.95	279.97	279.41	280.07	280.51	279.71	279.73
278.50	279.05	279.40	279.19	279.16	278.98	279.57	279.97	279.53	279.57	278.65	279.11	279.41	278.80	278.82	279.10	279.82	279.81	278.91	278.93	279.27	280.03	280.39	279.54	279.55	279.34	280.04	280.08	279.51	279.53	279.12	279.86	279.72	278.34	278.34	279.35	280.10	279.89	278.11	278.11	279.32	280.09	279.63	279.61	279.62	281.46	282.38	281.79	281.35	281.37	279.73	280.69	280.51	279.69	279.71
278.46	278.90	279.08	278.43	278.44	278.89	279.58	279.68	279.21	279.25	279.41	280.25	280.47	280.09	280.11	278.78	279.35	279.61	279.16	279.17	279.31	280.18	280.30	279.42	279.44	279.17	279.88	279.72	279.40	279.40	279.07	279.72	279.82	279.24	279.25	279.27	279.94	280.07	278.43	278.42	280.29	281.20	280.87	280.42	280.41	279.44	280.09	279.91	278.81	278.82	280.31	281.17	280.87	280.20	280.22
278.61	279.08	279.45	279.06	279.05	279.25	279.91	280.32	279.29	279.28	279.69	280.47	280.40	279.44	279.46	278.95	279.82	280.04	278.94	278.95	279.15	279.84	279.98	278.73	278.76	279.72	280.56	280.57	279.65	279.65	279.43	280.17	280.33	279.87	279.89	279.09	279.74	279.60	278.41	278.42	280.15	280.86	280.89	280.19	280.18	280.44	281.18	280.82	280.35	280.35	279.93	280.79	280.35	279.57	279.59
278.11	278.48	278.49	277.99	277.98	279.76	280.53	280.60	280.45	280.47	279.24	280.00	279.92	279.24	279.26	278.89	279.53	279.62	278.98	278.99	280.02	280.78	281.37	280.56	280.58	278.87	279.52	279.51	278.66	278.66	279.53	280.39	280.58	279.47	279.49	279.47	280.21	280.29	278.18	278.19	280.05	281.05	280.70	280.43	280.42	280.25	281.00	280.86	280.36	280.36	280.78	281.66	281.15	280.35	280.38
277.47	277.72	277.99	277.25	277.25	279.70	280.48	280.47	279.55	279.58	279.85	280.57	280.76	280.01	280.06	278.75	279.38	279.45	278.87	278.89	278.87	279.62	279.46	278.25	278.27	279.21	279.79	279.79	278.94	278.97	279.10	279.83	280.00	279.35	279.36	279.16	279.97	279.72	278.64	278.63	279.74	280.52	280.14	280.40	280.41	280.65	281.55	281.65	280.64	280.66	279.60	280.33	280.21	279.16	279.18
277.83	278.17	278.27	278.20	278.21	278.64	279.20	279.57	279.33	279.36	279.53	280.36	280.34	279.42	279.42	279.09	279.88	279.97	279.02	279.04	279.55	280.33	280.50	279.62	279.64	278.89	279.56	279.92	279.13	279.14	279.57	280.33	280.51	280.08	280.11	278.99	279.54	279.56	278.27	278.27	280.68	281.53	280.88	281.13	281.15	279.31	280.04	279.84	279.15	279.14	280.61	281.48	281.11	280.51	280.53
277.99	278.27	278.44	278.20	278.19	280.68	281.59	281.86	281.20	281.27	279.10	279.82	279.76	279.17	279.19	279.61	280.27	280.49	279.75	279.79	279.69	280.47	280.53	279.00	279.01	279.31	280.10	280.37	279.69	279.72	279.76	280.63	280.67	279.57	279.59	278.52	279.11	278.91	278.23	278.26	279.79	280.55	280.55	280.25	280.26	279.65	280.43	280.41	279.55	279.56	280.07	280.89	280.93	279.93	279.95
278.48	278.87	278.95	278.36	278.36	281.29	282.28	282.40	281.27	281.29	278.81	279.48	279.72	279.09	279.11	278.99	279.70	279.70	279.34	279.35	279.57	280.32	280.42	279.47	279.49	279.57	280.23	280.30	279.51	279.52	279.76	280.67	280.85	280.44	280.47	277.98	278.56	278.84	277.52	277.55	279.96	280.83	280.49	279.66	279.69	280.71	281.56	281.32	280.61	280.62	279.48	280.11	280.26	279.17	279.18
278.98	279.43	279.53	279.10	279.10	280.63	281.55	281.72	280.76	280.82	278.53	278.98	279.20	278.84	278.85	279.81	280.53	280.79	280.15	280.17	279.79	280.70	280.75	279.11	279.13	279.20	279.99	280.26	279.52	279.54	280.05	281.03	280.95	280.22	280.24	278.16	278.69	278.98	277.68	277.68	280.21	281.08	280.85	280.54	280.52	280.44	281.40	281.22	280.61	280.62	280.19	281.12	280.38	279.31	279.30
278.68	279.13	279.28	278.57	278.56	279.71	280.57	280.98	280.41	280.45	279.50	280.24	280.45	279.86	279.91	278.85	279.48	279.64	279.19	279.22	279.58	280.36	280.32	279.08	279.11	279.67	280.44	280.27	279.33	279.36	280.01	280.92	280.95	280.06	280.12	279.11	279.74	279.96	277.87	277.87	280.22	280.99	280.56	280.37	280.37	280.78	281.68	281.29	280.54	280.55	281.09	282.02	281.54	280.75	280.77
278.87	279.51	279.26	278.54	278.53	280.08	280.84	281.15	280.77	280.83	279.35	280.09	280.15	279.44	279.46	280.73	281.55	281.68	280.77	280.83	280.76	281.58	281.61	280.30	280.33	278.56	279.11	279.40	278.52	278.54	280.16	280.97	280.99	279.98	279.98	278.27	278.84	279.11	278.53	278.52	279.63	280.33	279.86	280.08	280.09	279.82	280.56	281.04	279.75	279.78	279.90	280.73	280.32	279.23	279.24
279.33	279.97	280.10	279.42	279.45	279.16	279.99	280.15	279.60	279.61	279.52	280.21	280.42	279.66	279.67	278.94	279.72	279.84	279.50	279.53	280.31	281.20	281.66	280.11	280.14	278.69	279.41	279.53	279.23	279.22	280.05	280.84	281.01	280.19	280.22	278.88	279.47	279.89	278.03	278.01	279.35	280.04	280.44	280.03	280.02	280.08	280.88	280.69	280.40	280.40	281.28	282.08	281.49	280.42	280.44
278.91	279.48	279.52	279.40	279.41	278.78	279.43	279.72	279.32	279.33	279.85	280.65	281.00	280.36	280.40	279.13	279.76	279.93	279.05	279.08	280.25	281.03	281.11	279.55	279.59	280.43	281.25	281.33	280.32	280.38	279.96	280.90	281.25	280.74	280.76	278.73	279.37	279.68	278.48	278.48	280.48	281.31	280.91	280.61	280.63	280.10	280.99	281.13	280.22	280.24	279.76	280.65	279.99	279.51	279.52
278.66	279.06	279.39	278.66	278.66	280.43	281.40	281.46	280.44	280.48	279.47	280.12	280.18	279.52	279.54	279.91	280.63	280.98	279.75	279.75	280.50	281.37	281.53	280.43	280.48	279.34	280.17	280.39	279.69	279.72	280.16	281.03	281.18	280.45	280.49	279.43	279.96	280.23	278.04	278.06	280.65	281.57	281.56	280.99	281.01	280.36	281.28	281.05	280.63	280.64	280.63	281.47	281.47	280.38	280.41
278.10	278.48	278.64	278.29	278.28	281.01	281.87	282.11	280.98	281.01	280.34	281.21	281.34	280.09	280.12	280.26	281.09	281.27	280.06	280.10	280.25	281.00	281.43	279.52	279.55	279.62	280.42	280.67	279.76	279.77	279.92	280.82	280.89	280.33	280.35	279.37	280.19	280.16	278.83	278.85	280.00	280.87	280.81	280.07	280.08	280.41	281.42	281.00	279.78	279.81	281.46	282.36	282.17	281.17	281.19
278.63	279.12	279.33	278.56	278.56	279.21	280.19	280.31	279.71	279.77	280.16	280.88	281.20	280.37	280.39	279.55	280.29	280.31	279.76	279.80	279.07	279.65	279.88	279.01	279.03	279.72	280.48	280.66	279.86	279.92	280.59	281.51	281.65	280.93	280.99	279.24	280.03	280.10	278.70	278.69	280.14	281.02	281.23	279.57	279.58	280.63	281.59	281.02	280.05	280.05	281.00	281.86	282.12	280.77	280.80
278.69	279.26	279.45	278.71	278.70	279.51	280.19	280.57	279.62	279.65	280.15	280.87	281.08	280.36	280.40	279.60	280.41	280.61	279.62	279.63	279.69	280.56	280.67	279.81	279.83	279.67	280.44	280.60	279.68	279.70	280.09	280.98	281.10	280.19	280.20	279.30	280.05	280.14	278.56	278.56	280.88	281.76	281.27	281.19	281.19	280.34	281.26	280.67	280.09	280.12	281.30	282.14	281.71	280.75	280.75
278.20	278.66	279.06	278.62	278.63	279.21	279.78	280.16	279.74	279.76	280.55	281.34	281.51	280.31	280.34	279.65	280.39	280.56	280.00	280.03	280.07	280.84	281.06	279.68	279.71	280.42	281.13	281.25	280.27	280.31	280.77	281.60	281.89	281.15	281.19	278.91	279.58	279.59	278.77	278.76	280.31	281.20	281.04	280.51	280.51	280.54	281.37	280.99	280.25	280.27	281.04	281.90	281.44	280.56	280.58
279.30	279.93	280.18	279.90	279.89	279.47	280.30	280.24	279.68	279.71	280.19	280.97	280.93	279.98	280.00	280.09	280.89	280.99	280.04	280.06	280.01	280.91	280.89	279.56	279.58	279.47	280.02	280.32	279.49	279.49	279.44	280.27	280.41	279.36	279.37	279.78	280.75	280.65	277.85	277.84	280.80	281.73	281.41	281.29	281.29	280.85	281.64	281.38	280.54	280.56	280.37	281.32	281.30	280.04	280.03
279.09	279.68	280.05	279.49	279.49	280.89	281.78	282.10	281.07	281.11	279.00	280.04	279.92	279.07	279.08	280.06	280.79	280.70	280.02	280.03	280.14	281.06	280.93	279.68	279.71	279.67	280.44	280.42	279.19	279.21	280.12	281.15	281.28	280.52	280.53	279.84	280.81	280.87	278.63	278.65	280.32	281.30	280.92	280.51	280.52	280.48	281.30	281.30	280.27	280.29	280.64	281.67	281.61	280.68	280.71
279.39	280.04	280.23	279.78	279.77	281.18	282.09	282.45	281.42	281.47	279.43	280.16	280.17	278.98	278.97	279.21	279.86	280.02	279.87	279.88	279.98	280.68	280.55	279.20	279.23	279.56	280.11	280.33	279.32	279.35	280.45	281.31	281.52	280.43	280.46	279.79	280.77	280.55	279.01	279.01	280.53	281.41	281.33	281.04	281.02	280.94	281.88	281.56	280.47	280.49	281.08	282.01	281.67	280.66	280.65
279.18	279.92	279.84	279.51	279.51	281.14	281.92	282.13	280.92	280.96	279.35	279.87	280.23	279.56	279.57	280.26	281.01	281.19	279.99	280.01	279.94	280.75	281.03	280.23	280.24	279.51	280.32	280.46	280.21	280.25	279.71	280.55	280.82	279.87	279.89	279.48	280.43	280.21	278.76	278.78	280.46	281.30	280.87	280.27	280.30	280.59	281.62	281.14	280.42	280.44	280.42	281.29	281.22	280.15	280.16
279.58	280.19	280.51	280.06	280.06	279.84	280.68	280.75	280.86	280.89	280.41	281.22	281.32	279.90	279.92	279.70	280.51	280.95	280.37	280.41	280.71	281.67	281.85	280.10	280.14	280.83	281.69	282.00	281.06	281.12	280.23	281.15	281.20	280.64	280.67	279.17	279.92	280.16	278.24	278.26	280.68	281.64	281.41	280.86	280.86	280.55	281.35	281.42	280.30	280.31	280.74	281.59	281.12	280.57	280.60
279.59	280.31	280.07	279.31	279.33	280.13	281.02	281.21	280.71	280.73	280.15	280.87	280.94	280.37	280.41	280.55	281.42	281.77	280.81	280.87	280.33	281.13	281.10	279.81	279.84	280.96	281.75	282.21	281.30	281.33	280.44	281.31	281.81	281.47	281.52	278.67	279.42	279.31	278.50	278.53	281.15	282.04	282.05	281.26	281.27	280.51	281.35	281.30	280.50	280.51	280.21	281.00	280.82	279.93	279.94
278.45	278.77	278.87	278.41	278.42	280.50	281.43	281.85	280.79	280.83	279.93	280.71	280.73	279.70	279.71	280.48	281.15	281.48	280.62	280.66	280.92	281.80	282.08	280.63	280.67	280.84	281.83	281.99	280.72	280.75	280.53	281.53	281.84	281.55	281.61	279.23	280.04	279.80	277.67	277.66	280.98	281.72	281.19	280.76	280.78	280.92	281.81	281.86	281.40	281.43	281.16	282.13	282.09	281.19	281.20
279.37	279.93	280.35	279.55	279.54	279.83	280.63	280.66	280.00	279.99	281.06	281.92	282.09	281.02	281.05	279.84	280.64	280.70	280.01	280.03	280.25	281.12	281.32	279.82	279.85	281.41	282.33	282.80	281.60	281.64	279.90	280.52	280.58	279.88	279.91	278.91	279.70	279.57	278.45	278.46	280.55	281.45	281.21	280.36	280.39	281.14	281.96	282.09	281.33	281.34	280.71	281.63	281.70	280.22	280.22
278.51	279.13	279.32	278.59	278.57	281.08	282.01	282.11	281.41	281.45	280.74	281.59	281.84	280.65	280.67	280.67	281.56	282.02	281.36	281.40	280.53	281.52	281.52	280.23	280.24	280.24	281.08	281.37	280.20	280.23	279.86	280.68	280.87	280.83	280.86	278.79	279.45	279.50	277.97	277.97	281.33	282.07	281.84	281.67	281.68	279.88	280.72	280.76	280.21	280.25	280.00	280.92	280.92	279.77	279.79
279.32	279.83	280.17	279.88	279.90	280.69	281.58	281.47	280.88	280.92	280.37	281.22	281.58	280.91	280.96	279.98	280.82	281.12	280.32	280.36	281.05	281.87	282.06	280.35	280.41	280.96	281.83	281.87	280.41	280.46	279.55	280.34	280.78	279.96	279.98	278.25	278.78	278.70	277.95	277.95	280.67	281.48	280.84	280.53	280.53	281.00	281.70	281.90	280.65	280.66	281.58	282.47	282.23	281.43	281.45
278.91	279.59	279.95	279.63	279.62	280.53	281.43	281.75	280.62	280.65	280.78	281.83	282.11	281.45	281.49	280.85	281.78	281.86	280.78	280.83	280.72	281.60	281.89	280.33	280.36	279.88	280.65	280.97	280.16	280.20	279.22	279.91	280.08	279.52	279.53	278.87	279.44	279.66	277.68	277.68	281.79	282.65	282.75	281.82	281.84	281.11	281.91	281.57	280.67	280.67	280.07	281.00	280.74	280.28	280.27
278.25	278.67	279.15	278.66	278.68	280.11	280.94	281.07	281.02	281.08	281.76	282.59	282.88	281.66	281.71	279.66	280.40	280.83	280.37	280.41	280.27	281.10	281.36	279.73	279.74	280.43	281.20	281.57	280.68	280.73	280.18	281.02	281.29	280.39	280.44	279.20	279.78	280.13	278.50	278.50	281.14	281.98	282.18	281.02	281.02	280.53	281.42	281.05	280.47	280.50	281.23	282.07	282.20	281.10	281.14
278.40	279.05	279.29	278.88	278.86	280.87	281.79	282.29	281.74	281.79	280.81	281.66	281.96	281.34	281.38	280.17	280.98	281.02	280.00	280.03	280.29	281.07	281.08	279.84	279.87	280.94	281.75	282.04	280.88	280.91	279.87	280.66	280.74	280.13	280.14	279.44	280.19	280.57	278.58	278.59	280.88	281.79	281.20	280.55	280.55	280.74	281.67	281.51	280.70	280.71	281.67	282.55	282.27	281.53	281.55
279.45	280.28	280.25	279.47	279.47	281.52	282.35	282.89	282.01	282.08	281.06	281.99	282.23	281.55	281.61	280.76	281.66	282.06	281.05	281.07	281.07	281.92	282.31	280.76	280.82	279.62	280.26	280.36	279.81	279.84	280.65	281.50	281.68	280.92	280.96	280.09	280.85	281.15	279.20	279.21	280.58	281.43	281.36	280.37	280.38	280.63	281.41	281.18	280.70	280.71	281.33	282.12	282.14	281.38	281.39
278.82	279.35	279.51	278.89	278.87	280.53	281.32	281.52	281.04	281.08	281.70	282.60	282.74	281.99	282.06	280.55	281.47	281.66	280.78	280.82	280.42	281.22	281.35	280.42	280.46	280.53	281.48	281.50	280.77	280.79	280.46	281.32	281.74	281.07	281.10	279.05	279.76	279.78	279.41	279.41	281.79	282.67	282.53	281.92	281.94	279.94	280.77	280.58	280.04	280.05	281.01	281.97	281.57	280.87	280.87
278.97	279.53	279.81	279.49	279.50	280.53	281.35	281.74	281.46	281.51	280.50	281.21	281.39	280.66	280.73	280.61	281.44	281.72	281.06	281.11	280.90	281.86	282.09	280.64	280.67	280.28	281.11	280.96	279.69	279.71	280.59	281.50	281.94	281.13	281.15	279.09	279.85	279.60	278.20	278.20	281.00	281.85	281.76	281.20	281.23	280.91	281.88	281.12	281.23	281.21	280.15	280.99	280.84	279.65	279.67
